%!PS-Adobe-3.0 EPSF-3.0
%%Title: ../figures/fig1-powerspec.eps
%%Creator: matplotlib version 1.2.1, http://matplotlib.org/
%%CreationDate: Fri Sep 20 18:55:52 2013
%%Orientation: portrait
%%BoundingBox: -126 108 738 684
%%EndComments
%%BeginProlog
/mpldict 8 dict def
mpldict begin
/m { moveto } bind def
/l { lineto } bind def
/r { rlineto } bind def
/c { curveto } bind def
/cl { closepath } bind def
/box {
m
1 index 0 r
0 exch r
neg 0 r
cl
} bind def
/clipbox {
box
clip
newpath
} bind def
%!PS-Adobe-3.0 Resource-Font
%%Title: DejaVu Sans
%%Copyright: Copyright (c) 2003 by Bitstream, Inc. All Rights Reserved. Copyright (c) 2006 by Tavmjong Bah. All Rights Reserved. DejaVu changes are in public domain 
%%Creator: Converted from TrueType to type 3 by PPR
25 dict begin
/_d{bind def}bind def
/_m{moveto}_d
/_l{lineto}_d
/_cl{closepath eofill}_d
/_c{curveto}_d
/_sc{7 -1 roll{setcachedevice}{pop pop pop pop pop pop}ifelse}_d
/_e{exec}_d
/FontName /DejaVuSans def
/PaintType 0 def
/FontMatrix[.001 0 0 .001 0 0]def
/FontBBox[-1021 -415 1681 1167]def
/FontType 3 def
/Encoding [ /space /parenleft /parenright /comma /period /zero /one /two /three /four /five /F /H /L /N /P /R /S /W /a /c /d /e /g /i /k /l /m /n /o /q /r /t /u /w /z ] def
/FontInfo 10 dict dup begin
/FamilyName (DejaVu Sans) def
/FullName (DejaVu Sans) def
/Notice (Copyright (c) 2003 by Bitstream, Inc. All Rights Reserved. Copyright (c) 2006 by Tavmjong Bah. All Rights Reserved. DejaVu changes are in public domain ) def
/Weight (Book) def
/Version (Version 2.33) def
/ItalicAngle 0.0 def
/isFixedPitch false def
/UnderlinePosition -130 def
/UnderlineThickness 90 def
end readonly def
/CharStrings 36 dict dup begin
/space{318 0 0 0 0 0 _sc
}_d
/parenleft{390 0 86 -131 310 759 _sc
310 759 _m
266 683 234 609 213 536 _c
191 463 181 389 181 314 _c
181 238 191 164 213 91 _c
234 17 266 -56 310 -131 _c
232 -131 _l
183 -54 146 20 122 94 _c
98 168 86 241 86 314 _c
86 386 98 459 122 533 _c
146 607 182 682 232 759 _c
310 759 _l
_cl}_d
/parenright{390 0 80 -131 304 759 _sc
80 759 _m
158 759 _l
206 682 243 607 267 533 _c
291 459 304 386 304 314 _c
304 241 291 168 267 94 _c
243 20 206 -54 158 -131 _c
80 -131 _l
123 -56 155 17 177 91 _c
198 164 209 238 209 314 _c
209 389 198 463 177 536 _c
155 609 123 683 80 759 _c
_cl}_d
/comma{318 0 77 -115 220 124 _sc
117 124 _m
220 124 _l
220 40 _l
140 -115 _l
77 -115 _l
117 40 _l
117 124 _l
_cl}_d
/period{318 0 107 0 210 124 _sc
107 124 _m
210 124 _l
210 0 _l
107 0 _l
107 124 _l
_cl}_d
/zero{636 0 66 -13 570 742 _sc
318 664 _m
267 664 229 639 203 589 _c
177 539 165 464 165 364 _c
165 264 177 189 203 139 _c
229 89 267 64 318 64 _c
369 64 407 89 433 139 _c
458 189 471 264 471 364 _c
471 464 458 539 433 589 _c
407 639 369 664 318 664 _c
318 742 _m
399 742 461 709 505 645 _c
548 580 570 486 570 364 _c
570 241 548 147 505 83 _c
461 19 399 -13 318 -13 _c
236 -13 173 19 130 83 _c
87 147 66 241 66 364 _c
66 486 87 580 130 645 _c
173 709 236 742 318 742 _c
_cl}_d
/one{636 0 110 0 544 729 _sc
124 83 _m
285 83 _l
285 639 _l
110 604 _l
110 694 _l
284 729 _l
383 729 _l
383 83 _l
544 83 _l
544 0 _l
124 0 _l
124 83 _l
_cl}_d
/two{{636 0 73 0 536 742 _sc
192 83 _m
536 83 _l
536 0 _l
73 0 _l
73 83 _l
110 121 161 173 226 239 _c
290 304 331 346 348 365 _c
380 400 402 430 414 455 _c
426 479 433 504 433 528 _c
433 566 419 598 392 622 _c
365 646 330 659 286 659 _c
255 659 222 653 188 643 _c
154 632 117 616 78 594 _c
78 694 _l
118 710 155 722 189 730 _c
223 738 255 742 284 742 _c
}_e{359 742 419 723 464 685 _c
509 647 532 597 532 534 _c
532 504 526 475 515 449 _c
504 422 484 390 454 354 _c
446 344 420 317 376 272 _c
332 227 271 164 192 83 _c
_cl}_e}_d
/three{{636 0 76 -13 556 742 _sc
406 393 _m
453 383 490 362 516 330 _c
542 298 556 258 556 212 _c
556 140 531 84 482 45 _c
432 6 362 -13 271 -13 _c
240 -13 208 -10 176 -4 _c
144 1 110 10 76 22 _c
76 117 _l
103 101 133 89 166 81 _c
198 73 232 69 268 69 _c
330 69 377 81 409 105 _c
441 129 458 165 458 212 _c
458 254 443 288 413 312 _c
383 336 341 349 287 349 _c
}_e{202 349 _l
202 430 _l
291 430 _l
339 430 376 439 402 459 _c
428 478 441 506 441 543 _c
441 580 427 609 401 629 _c
374 649 336 659 287 659 _c
260 659 231 656 200 650 _c
169 644 135 635 98 623 _c
98 711 _l
135 721 170 729 203 734 _c
235 739 266 742 296 742 _c
370 742 429 725 473 691 _c
517 657 539 611 539 553 _c
539 513 527 479 504 451 _c
481 423 448 403 406 393 _c
_cl}_e}_d
/four{636 0 49 0 580 729 _sc
378 643 _m
129 254 _l
378 254 _l
378 643 _l
352 729 _m
476 729 _l
476 254 _l
580 254 _l
580 172 _l
476 172 _l
476 0 _l
378 0 _l
378 172 _l
49 172 _l
49 267 _l
352 729 _l
_cl}_d
/five{{636 0 77 -13 549 729 _sc
108 729 _m
495 729 _l
495 646 _l
198 646 _l
198 467 _l
212 472 227 476 241 478 _c
255 480 270 482 284 482 _c
365 482 429 459 477 415 _c
525 370 549 310 549 234 _c
549 155 524 94 475 51 _c
426 8 357 -13 269 -13 _c
238 -13 207 -10 175 -6 _c
143 -1 111 6 77 17 _c
77 116 _l
106 100 136 88 168 80 _c
199 72 232 69 267 69 _c
}_e{323 69 368 83 401 113 _c
433 143 450 183 450 234 _c
450 284 433 324 401 354 _c
368 384 323 399 267 399 _c
241 399 214 396 188 390 _c
162 384 135 375 108 363 _c
108 729 _l
_cl}_e}_d
/F{575 0 98 0 517 729 _sc
98 729 _m
517 729 _l
517 646 _l
197 646 _l
197 431 _l
486 431 _l
486 348 _l
197 348 _l
197 0 _l
98 0 _l
98 729 _l
_cl}_d
/H{752 0 98 0 654 729 _sc
98 729 _m
197 729 _l
197 430 _l
555 430 _l
555 729 _l
654 729 _l
654 0 _l
555 0 _l
555 347 _l
197 347 _l
197 0 _l
98 0 _l
98 729 _l
_cl}_d
/L{557 0 98 0 552 729 _sc
98 729 _m
197 729 _l
197 83 _l
552 83 _l
552 0 _l
98 0 _l
98 729 _l
_cl}_d
/N{748 0 98 0 650 729 _sc
98 729 _m
231 729 _l
554 119 _l
554 729 _l
650 729 _l
650 0 _l
517 0 _l
194 610 _l
194 0 _l
98 0 _l
98 729 _l
_cl}_d
/P{603 0 98 0 569 729 _sc
197 648 _m
197 374 _l
321 374 _l
367 374 402 385 427 409 _c
452 433 465 467 465 511 _c
465 555 452 588 427 612 _c
402 636 367 648 321 648 _c
197 648 _l
98 729 _m
321 729 _l
402 729 464 710 506 673 _c
548 636 569 582 569 511 _c
569 439 548 384 506 348 _c
464 311 402 293 321 293 _c
197 293 _l
197 0 _l
98 0 _l
98 729 _l
_cl}_d
/R{{695 0 98 0 666 729 _sc
444 342 _m
465 334 486 319 506 296 _c
526 272 546 240 566 199 _c
666 0 _l
560 0 _l
467 187 _l
443 235 419 268 397 284 _c
374 300 343 308 304 308 _c
197 308 _l
197 0 _l
98 0 _l
98 729 _l
321 729 _l
404 729 466 711 507 677 _c
548 642 569 589 569 519 _c
569 473 558 434 537 404 _c
515 374 484 353 444 342 _c
197 648 _m
197 389 _l
321 389 _l
}_e{368 389 404 400 428 422 _c
452 444 465 476 465 519 _c
465 561 452 593 428 615 _c
404 637 368 648 321 648 _c
197 648 _l
_cl}_e}_d
/S{{635 0 66 -13 579 742 _sc
535 705 _m
535 609 _l
497 627 462 640 429 649 _c
395 657 363 662 333 662 _c
279 662 237 651 208 631 _c
179 610 165 580 165 542 _c
165 510 174 485 194 469 _c
213 452 250 439 304 429 _c
364 417 _l
437 403 491 378 526 343 _c
561 307 579 260 579 201 _c
579 130 555 77 508 41 _c
460 5 391 -13 300 -13 _c
265 -13 228 -9 189 -2 _c
}_e{150 5 110 16 69 32 _c
69 134 _l
109 111 148 94 186 83 _c
224 71 262 66 300 66 _c
356 66 399 77 430 99 _c
460 121 476 152 476 194 _c
476 230 465 258 443 278 _c
421 298 385 313 335 323 _c
275 335 _l
201 349 148 372 115 404 _c
82 435 66 478 66 534 _c
66 598 88 649 134 686 _c
179 723 242 742 322 742 _c
356 742 390 739 426 733 _c
461 727 497 717 535 705 _c
}_e{_cl}_e}_d
/W{989 0 33 0 956 729 _sc
33 729 _m
133 729 _l
286 113 _l
439 729 _l
550 729 _l
703 113 _l
856 729 _l
956 729 _l
773 0 _l
649 0 _l
495 633 _l
340 0 _l
216 0 _l
33 729 _l
_cl}_d
/a{{613 0 60 -13 522 560 _sc
343 275 _m
270 275 220 266 192 250 _c
164 233 150 205 150 165 _c
150 133 160 107 181 89 _c
202 70 231 61 267 61 _c
317 61 357 78 387 114 _c
417 149 432 196 432 255 _c
432 275 _l
343 275 _l
522 312 _m
522 0 _l
432 0 _l
432 83 _l
411 49 385 25 355 10 _c
325 -5 287 -13 243 -13 _c
187 -13 142 2 109 33 _c
76 64 60 106 60 159 _c
}_e{60 220 80 266 122 298 _c
163 329 224 345 306 345 _c
432 345 _l
432 354 _l
432 395 418 427 391 450 _c
364 472 326 484 277 484 _c
245 484 215 480 185 472 _c
155 464 127 453 100 439 _c
100 522 _l
132 534 164 544 195 550 _c
226 556 256 560 286 560 _c
365 560 424 539 463 498 _c
502 457 522 395 522 312 _c
_cl}_e}_d
/c{{550 0 55 -13 488 560 _sc
488 526 _m
488 442 _l
462 456 437 466 411 473 _c
385 480 360 484 334 484 _c
276 484 230 465 198 428 _c
166 391 150 339 150 273 _c
150 206 166 154 198 117 _c
230 80 276 62 334 62 _c
360 62 385 65 411 72 _c
437 79 462 90 488 104 _c
488 21 _l
462 9 436 0 410 -5 _c
383 -10 354 -13 324 -13 _c
242 -13 176 12 128 64 _c
}_e{79 115 55 185 55 273 _c
55 362 79 432 128 483 _c
177 534 244 560 330 560 _c
358 560 385 557 411 551 _c
437 545 463 537 488 526 _c
_cl}_e}_d
/d{{635 0 55 -13 544 760 _sc
454 464 _m
454 760 _l
544 760 _l
544 0 _l
454 0 _l
454 82 _l
435 49 411 25 382 10 _c
353 -5 319 -13 279 -13 _c
213 -13 159 13 117 65 _c
75 117 55 187 55 273 _c
55 359 75 428 117 481 _c
159 533 213 560 279 560 _c
319 560 353 552 382 536 _c
411 520 435 496 454 464 _c
148 273 _m
148 207 161 155 188 117 _c
215 79 253 61 301 61 _c
}_e{348 61 385 79 413 117 _c
440 155 454 207 454 273 _c
454 339 440 390 413 428 _c
385 466 348 485 301 485 _c
253 485 215 466 188 428 _c
161 390 148 339 148 273 _c
_cl}_e}_d
/e{{615 0 55 -13 562 560 _sc
562 296 _m
562 252 _l
149 252 _l
153 190 171 142 205 110 _c
238 78 284 62 344 62 _c
378 62 412 66 444 74 _c
476 82 509 95 541 113 _c
541 28 _l
509 14 476 3 442 -3 _c
408 -9 373 -13 339 -13 _c
251 -13 182 12 131 62 _c
80 112 55 181 55 268 _c
55 357 79 428 127 481 _c
175 533 241 560 323 560 _c
397 560 455 536 498 489 _c
}_e{540 441 562 377 562 296 _c
472 322 _m
471 371 457 410 431 440 _c
404 469 368 484 324 484 _c
274 484 234 469 204 441 _c
174 413 156 373 152 322 _c
472 322 _l
_cl}_e}_d
/g{{635 0 55 -207 544 560 _sc
454 280 _m
454 344 440 395 414 431 _c
387 467 349 485 301 485 _c
253 485 215 467 188 431 _c
161 395 148 344 148 280 _c
148 215 161 165 188 129 _c
215 93 253 75 301 75 _c
349 75 387 93 414 129 _c
440 165 454 215 454 280 _c
544 68 _m
544 -24 523 -93 482 -139 _c
440 -184 377 -207 292 -207 _c
260 -207 231 -204 203 -200 _c
175 -195 147 -188 121 -178 _c
}_e{121 -91 _l
147 -105 173 -115 199 -122 _c
225 -129 251 -133 278 -133 _c
336 -133 380 -117 410 -87 _c
439 -56 454 -10 454 52 _c
454 96 _l
435 64 411 40 382 24 _c
353 8 319 0 279 0 _c
211 0 157 25 116 76 _c
75 127 55 195 55 280 _c
55 364 75 432 116 483 _c
157 534 211 560 279 560 _c
319 560 353 552 382 536 _c
411 520 435 496 454 464 _c
454 547 _l
544 547 _l
}_e{544 68 _l
_cl}_e}_d
/i{278 0 94 0 184 760 _sc
94 547 _m
184 547 _l
184 0 _l
94 0 _l
94 547 _l
94 760 _m
184 760 _l
184 646 _l
94 646 _l
94 760 _l
_cl}_d
/k{579 0 91 0 576 760 _sc
91 760 _m
181 760 _l
181 311 _l
449 547 _l
564 547 _l
274 291 _l
576 0 _l
459 0 _l
181 267 _l
181 0 _l
91 0 _l
91 760 _l
_cl}_d
/l{278 0 94 0 184 760 _sc
94 760 _m
184 760 _l
184 0 _l
94 0 _l
94 760 _l
_cl}_d
/m{{974 0 91 0 889 560 _sc
520 442 _m
542 482 569 511 600 531 _c
631 550 668 560 711 560 _c
767 560 811 540 842 500 _c
873 460 889 403 889 330 _c
889 0 _l
799 0 _l
799 327 _l
799 379 789 418 771 444 _c
752 469 724 482 686 482 _c
639 482 602 466 575 435 _c
548 404 535 362 535 309 _c
535 0 _l
445 0 _l
445 327 _l
445 379 435 418 417 444 _c
398 469 369 482 331 482 _c
}_e{285 482 248 466 221 435 _c
194 404 181 362 181 309 _c
181 0 _l
91 0 _l
91 547 _l
181 547 _l
181 462 _l
201 495 226 520 255 536 _c
283 552 317 560 357 560 _c
397 560 430 550 458 530 _c
486 510 506 480 520 442 _c
_cl}_e}_d
/n{634 0 91 0 549 560 _sc
549 330 _m
549 0 _l
459 0 _l
459 327 _l
459 379 448 417 428 443 _c
408 469 378 482 338 482 _c
289 482 251 466 223 435 _c
195 404 181 362 181 309 _c
181 0 _l
91 0 _l
91 547 _l
181 547 _l
181 462 _l
202 494 227 519 257 535 _c
286 551 320 560 358 560 _c
420 560 468 540 500 501 _c
532 462 549 405 549 330 _c
_cl}_d
/o{612 0 55 -13 557 560 _sc
306 484 _m
258 484 220 465 192 427 _c
164 389 150 338 150 273 _c
150 207 163 156 191 118 _c
219 80 257 62 306 62 _c
354 62 392 80 420 118 _c
448 156 462 207 462 273 _c
462 337 448 389 420 427 _c
392 465 354 484 306 484 _c
306 560 _m
384 560 445 534 490 484 _c
534 433 557 363 557 273 _c
557 183 534 113 490 63 _c
445 12 384 -13 306 -13 _c
227 -13 165 12 121 63 _c
77 113 55 183 55 273 _c
55 363 77 433 121 484 _c
165 534 227 560 306 560 _c
_cl}_d
/q{{635 0 55 -207 544 560 _sc
148 273 _m
148 207 161 155 188 117 _c
215 79 253 61 301 61 _c
348 61 385 79 413 117 _c
440 155 454 207 454 273 _c
454 339 440 390 413 428 _c
385 466 348 485 301 485 _c
253 485 215 466 188 428 _c
161 390 148 339 148 273 _c
454 82 _m
435 49 411 25 382 10 _c
353 -5 319 -13 279 -13 _c
213 -13 159 13 117 65 _c
75 117 55 187 55 273 _c
}_e{55 359 75 428 117 481 _c
159 533 213 560 279 560 _c
319 560 353 552 382 536 _c
411 520 435 496 454 464 _c
454 547 _l
544 547 _l
544 -207 _l
454 -207 _l
454 82 _l
_cl}_e}_d
/r{411 0 91 0 411 560 _sc
411 463 _m
401 469 390 473 378 476 _c
366 478 353 480 339 480 _c
288 480 249 463 222 430 _c
194 397 181 350 181 288 _c
181 0 _l
91 0 _l
91 547 _l
181 547 _l
181 462 _l
199 495 224 520 254 536 _c
284 552 321 560 365 560 _c
371 560 378 559 386 559 _c
393 558 401 557 411 555 _c
411 463 _l
_cl}_d
/t{392 0 27 0 368 702 _sc
183 702 _m
183 547 _l
368 547 _l
368 477 _l
183 477 _l
183 180 _l
183 135 189 106 201 94 _c
213 81 238 75 276 75 _c
368 75 _l
368 0 _l
276 0 _l
206 0 158 13 132 39 _c
106 65 93 112 93 180 _c
93 477 _l
27 477 _l
27 547 _l
93 547 _l
93 702 _l
183 702 _l
_cl}_d
/u{634 0 85 -13 543 560 _sc
85 216 _m
85 547 _l
175 547 _l
175 219 _l
175 167 185 129 205 103 _c
225 77 255 64 296 64 _c
344 64 383 79 411 110 _c
439 141 453 183 453 237 _c
453 547 _l
543 547 _l
543 0 _l
453 0 _l
453 84 _l
431 50 405 26 377 10 _c
348 -5 315 -13 277 -13 _c
214 -13 166 6 134 45 _c
101 83 85 140 85 216 _c
311 560 _m
311 560 _l
_cl}_d
/w{818 0 42 0 776 547 _sc
42 547 _m
132 547 _l
244 120 _l
356 547 _l
462 547 _l
574 120 _l
686 547 _l
776 547 _l
633 0 _l
527 0 _l
409 448 _l
291 0 _l
185 0 _l
42 547 _l
_cl}_d
/z{525 0 43 0 482 547 _sc
55 547 _m
482 547 _l
482 465 _l
144 72 _l
482 72 _l
482 0 _l
43 0 _l
43 82 _l
381 475 _l
55 475 _l
55 547 _l
_cl}_d
end readonly def

/BuildGlyph
 {exch begin
 CharStrings exch
 2 copy known not{pop /.notdef}if
 true 3 1 roll get exec
 end}_d

/BuildChar {
 1 index /Encoding get exch get
 1 index /BuildGlyph get exec
}_d

FontName currentdict end definefont pop
end
%%EndProlog
mpldict begin
-126 108 translate
864 576 0 0 clipbox
gsave
0 0 m
864 0 l
864 576 l
0 576 l
cl
1.000 setgray
fill
grestore
gsave
41.5547 412.8 m
847.526 412.8 l
847.526 555 l
41.5547 555 l
cl
1.000 setgray
fill
grestore
1.000 setlinewidth
1 setlinejoin
2 setlinecap
[] 0 setdash
0.000 0.000 1.000 setrgbcolor
gsave
806 142.2 41.55 412.8 clipbox
38.265 412.807 m
67.8721 412.896 l
71.1618 413.505 l
74.4515 412.981 l
77.7411 412.969 l
81.0308 412.843 l
84.3205 412.86 l
87.6102 413.71 l
90.8999 412.801 l
94.1895 412.885 l
97.4792 412.804 l
100.769 413.245 l
104.059 413.18 l
107.348 412.87 l
110.638 413.193 l
113.928 413.29 l
117.217 413.018 l
120.507 413.114 l
127.086 412.893 l
130.376 413.04 l
140.245 412.83 l
143.535 412.879 l
146.824 413.11 l
159.983 412.831 l
163.273 413.071 l
166.562 412.875 l
176.431 413.033 l
179.721 412.811 l
186.301 412.886 l
189.59 413.187 l
192.88 412.891 l
613.959 412.823 l
630.407 412.802 l
656.724 412.819 l
692.911 412.807 l
850.815 412.805 l
850.815 412.805 l
stroke
grestore
0.500 setlinewidth
0 setlinecap
0.000 setgray
gsave
/o {
gsave
newpath
translate
0.5 setlinewidth
1 setlinejoin
0 setlinecap
0 0 m
0 4 l
gsave
0.000 setgray
fill
grestore
stroke
grestore
} bind def
189.59 412.8 o
grestore
gsave
/o {
gsave
newpath
translate
0.5 setlinewidth
1 setlinejoin
0 setlinecap
0 0 m
0 -4 l
gsave
0.000 setgray
fill
grestore
stroke
grestore
} bind def
189.59 555 o
grestore
/DejaVuSans findfont
10.000 scalefont
setfont
gsave
184.105820 401.237500 translate
0.000000 rotate
0.000000 0.140625 m /one glyphshow
6.362305 0.140625 m /zero glyphshow
grestore
gsave
/o {
gsave
newpath
translate
0.5 setlinewidth
1 setlinejoin
0 setlinecap
0 0 m
0 4 l
gsave
0.000 setgray
fill
grestore
stroke
grestore
} bind def
354.074 412.8 o
grestore
gsave
/o {
gsave
newpath
translate
0.5 setlinewidth
1 setlinejoin
0 setlinecap
0 0 m
0 -4 l
gsave
0.000 setgray
fill
grestore
stroke
grestore
} bind def
354.074 555 o
grestore
gsave
348.410029 401.237500 translate
0.000000 rotate
0.000000 0.140625 m /two glyphshow
6.362305 0.140625 m /zero glyphshow
grestore
gsave
/o {
gsave
newpath
translate
0.5 setlinewidth
1 setlinejoin
0 setlinecap
0 0 m
0 4 l
gsave
0.000 setgray
fill
grestore
stroke
grestore
} bind def
518.558 412.8 o
grestore
gsave
/o {
gsave
newpath
translate
0.5 setlinewidth
1 setlinejoin
0 setlinecap
0 0 m
0 -4 l
gsave
0.000 setgray
fill
grestore
stroke
grestore
} bind def
518.558 555 o
grestore
gsave
512.909550 401.237500 translate
0.000000 rotate
0.000000 0.140625 m /three glyphshow
6.362305 0.140625 m /zero glyphshow
grestore
gsave
/o {
gsave
newpath
translate
0.5 setlinewidth
1 setlinejoin
0 setlinecap
0 0 m
0 4 l
gsave
0.000 setgray
fill
grestore
stroke
grestore
} bind def
683.042 412.8 o
grestore
gsave
/o {
gsave
newpath
translate
0.5 setlinewidth
1 setlinejoin
0 setlinecap
0 0 m
0 -4 l
gsave
0.000 setgray
fill
grestore
stroke
grestore
} bind def
683.042 555 o
grestore
gsave
677.252822 401.237500 translate
0.000000 rotate
0.000000 0.140625 m /four glyphshow
6.362305 0.140625 m /zero glyphshow
grestore
gsave
/o {
gsave
newpath
translate
0.5 setlinewidth
1 setlinejoin
0 setlinecap
0 0 m
0 4 l
gsave
0.000 setgray
fill
grestore
stroke
grestore
} bind def
847.526 412.8 o
grestore
gsave
/o {
gsave
newpath
translate
0.5 setlinewidth
1 setlinejoin
0 setlinecap
0 0 m
0 -4 l
gsave
0.000 setgray
fill
grestore
stroke
grestore
} bind def
847.526 555 o
grestore
gsave
841.877344 401.237500 translate
0.000000 rotate
0.000000 0.140625 m /five glyphshow
6.362305 0.140625 m /zero glyphshow
grestore
gsave
381.313672 386.565625 translate
0.000000 rotate
0.000000 2.078125 m /F glyphshow
5.001953 2.078125 m /r glyphshow
8.863281 2.078125 m /e glyphshow
15.015625 2.078125 m /q glyphshow
21.363281 2.078125 m /space glyphshow
24.541992 2.078125 m /parenleft glyphshow
28.443359 2.078125 m /H glyphshow
35.962891 2.078125 m /z glyphshow
41.211914 2.078125 m /parenright glyphshow
45.113281 2.078125 m /comma glyphshow
48.291992 2.078125 m /space glyphshow
51.470703 2.078125 m /R glyphshow
57.918945 2.078125 m /e glyphshow
64.071289 2.078125 m /g glyphshow
70.418945 2.078125 m /u glyphshow
76.756836 2.078125 m /l glyphshow
79.535156 2.078125 m /a glyphshow
85.663086 2.078125 m /r glyphshow
89.774414 2.078125 m /space glyphshow
92.953125 2.078125 m /L glyphshow
98.524414 2.078125 m /a glyphshow
104.652344 2.078125 m /t glyphshow
108.573242 2.078125 m /t glyphshow
112.494141 2.078125 m /i glyphshow
115.272461 2.078125 m /c glyphshow
120.770508 2.078125 m /e glyphshow
grestore
gsave
/o {
gsave
newpath
translate
0.5 setlinewidth
1 setlinejoin
0 setlinecap
0 0 m
4 0 l
gsave
0.000 setgray
fill
grestore
stroke
grestore
} bind def
41.5547 412.8 o
grestore
gsave
/o {
gsave
newpath
translate
0.5 setlinewidth
1 setlinejoin
0 setlinecap
0 0 m
-4 0 l
gsave
0.000 setgray
fill
grestore
stroke
grestore
} bind def
847.526 412.8 o
grestore
gsave
22.960938 409.018750 translate
0.000000 rotate
0.000000 0.140625 m /zero glyphshow
6.362305 0.140625 m /period glyphshow
9.541016 0.140625 m /zero glyphshow
grestore
gsave
/o {
gsave
newpath
translate
0.5 setlinewidth
1 setlinejoin
0 setlinecap
0 0 m
4 0 l
gsave
0.000 setgray
fill
grestore
stroke
grestore
} bind def
41.5547 448.35 o
grestore
gsave
/o {
gsave
newpath
translate
0.5 setlinewidth
1 setlinejoin
0 setlinecap
0 0 m
-4 0 l
gsave
0.000 setgray
fill
grestore
stroke
grestore
} bind def
847.526 448.35 o
grestore
gsave
23.179688 444.568750 translate
0.000000 rotate
0.000000 0.140625 m /zero glyphshow
6.362305 0.140625 m /period glyphshow
9.541016 0.140625 m /five glyphshow
grestore
gsave
/o {
gsave
newpath
translate
0.5 setlinewidth
1 setlinejoin
0 setlinecap
0 0 m
4 0 l
gsave
0.000 setgray
fill
grestore
stroke
grestore
} bind def
41.5547 483.9 o
grestore
gsave
/o {
gsave
newpath
translate
0.5 setlinewidth
1 setlinejoin
0 setlinecap
0 0 m
-4 0 l
gsave
0.000 setgray
fill
grestore
stroke
grestore
} bind def
847.526 483.9 o
grestore
gsave
23.398438 480.118750 translate
0.000000 rotate
0.000000 0.140625 m /one glyphshow
6.362305 0.140625 m /period glyphshow
9.541016 0.140625 m /zero glyphshow
grestore
gsave
/o {
gsave
newpath
translate
0.5 setlinewidth
1 setlinejoin
0 setlinecap
0 0 m
4 0 l
gsave
0.000 setgray
fill
grestore
stroke
grestore
} bind def
41.5547 519.45 o
grestore
gsave
/o {
gsave
newpath
translate
0.5 setlinewidth
1 setlinejoin
0 setlinecap
0 0 m
-4 0 l
gsave
0.000 setgray
fill
grestore
stroke
grestore
} bind def
847.526 519.45 o
grestore
gsave
23.617188 515.731250 translate
0.000000 rotate
0.000000 0.140625 m /one glyphshow
6.362305 0.140625 m /period glyphshow
9.541016 0.140625 m /five glyphshow
grestore
gsave
/o {
gsave
newpath
translate
0.5 setlinewidth
1 setlinejoin
0 setlinecap
0 0 m
4 0 l
gsave
0.000 setgray
fill
grestore
stroke
grestore
} bind def
41.5547 555 o
grestore
gsave
/o {
gsave
newpath
translate
0.5 setlinewidth
1 setlinejoin
0 setlinecap
0 0 m
-4 0 l
gsave
0.000 setgray
fill
grestore
stroke
grestore
} bind def
847.526 555 o
grestore
gsave
23.039063 551.218750 translate
0.000000 rotate
0.000000 0.140625 m /two glyphshow
6.362305 0.140625 m /period glyphshow
9.541016 0.140625 m /zero glyphshow
grestore
gsave
17.960938 469.275000 translate
90.000000 rotate
0.000000 0.140625 m /P glyphshow
5.655273 0.140625 m /o glyphshow
11.773438 0.140625 m /w glyphshow
19.952148 0.140625 m /e glyphshow
26.104492 0.140625 m /r glyphshow
grestore
gsave
41.554688 557.859375 translate
0.000000 rotate
0.000000 0.140625 m /one glyphshow
6.362305 0.140625 m /e glyphshow
12.514648 0.140625 m /one glyphshow
18.876953 0.140625 m /zero glyphshow
grestore
1.000 setlinewidth
2 setlinecap
gsave
41.5547 555 m
847.526 555 l
stroke
grestore
gsave
847.526 412.8 m
847.526 555 l
stroke
grestore
gsave
41.5547 412.8 m
847.526 412.8 l
stroke
grestore
gsave
41.5547 412.8 m
41.5547 555 l
stroke
grestore
gsave
41.5547 224.4 m
847.526 224.4 l
847.526 366.6 l
41.5547 366.6 l
cl
1.000 setgray
fill
grestore
0.000 0.000 1.000 setrgbcolor
gsave
806 142.2 41.55 224.4 clipbox
38.265 224.405 m
41.5547 224.441 l
44.8444 224.427 l
58.0031 224.412 l
64.5824 224.536 l
71.1618 224.416 l
74.4515 224.738 l
77.7411 224.686 l
81.0308 224.45 l
84.3205 224.625 l
87.6102 224.521 l
90.8999 224.907 l
94.1895 225.992 l
97.4792 235.407 l
100.769 251.567 l
104.059 227.128 l
107.348 230.121 l
110.638 225.9 l
113.928 224.421 l
117.217 225.213 l
120.507 225.206 l
123.797 225 l
127.086 224.418 l
133.666 224.474 l
136.955 224.409 l
140.245 225.042 l
143.535 224.506 l
146.824 224.598 l
150.114 225.177 l
153.404 226.578 l
156.693 225.303 l
159.983 224.552 l
166.562 226.041 l
169.852 225.249 l
173.142 239.452 l
176.431 225.56 l
179.721 224.539 l
183.011 230.329 l
186.301 226.995 l
189.59 224.41 l
192.88 225.663 l
196.17 224.685 l
199.459 225.624 l
202.749 225.143 l
206.039 224.463 l
209.328 224.706 l
212.618 224.816 l
215.908 224.796 l
219.197 224.599 l
222.487 224.899 l
225.777 224.605 l
229.066 225.499 l
235.646 225.617 l
238.935 226.229 l
242.225 225.99 l
245.515 227.45 l
248.804 226.687 l
252.094 224.42 l
255.384 226.647 l
258.673 225.906 l
261.963 225.511 l
265.253 224.451 l
268.542 225.328 l
271.832 224.478 l
275.122 224.49 l
278.411 225.146 l
281.701 224.676 l
284.991 224.549 l
288.281 225.123 l
291.57 224.536 l
304.729 224.827 l
308.019 224.418 l
314.598 225.724 l
317.888 225.136 l
321.177 226.801 l
324.467 224.625 l
327.757 224.799 l
331.046 225.256 l
334.336 224.828 l
337.626 224.598 l
340.915 224.544 l
344.205 224.735 l
347.495 224.513 l
354.074 224.556 l
357.364 224.489 l
360.653 224.708 l
363.943 224.661 l
367.233 224.438 l
370.522 224.547 l
373.812 224.438 l
377.102 224.582 l
380.392 224.61 l
383.681 225.052 l
386.971 224.4 l
390.261 224.902 l
393.55 224.797 l
396.84 224.879 l
400.13 224.64 l
403.419 225.027 l
406.709 224.403 l
409.999 224.614 l
413.288 224.422 l
419.868 224.569 l
423.157 224.412 l
426.447 224.556 l
433.026 224.423 l
436.316 224.564 l
446.185 224.438 l
449.475 224.603 l
456.054 224.463 l
459.344 224.658 l
462.633 224.482 l
469.213 224.681 l
475.792 224.41 l
479.082 224.48 l
482.372 224.418 l
485.661 224.589 l
492.241 224.4 l
511.979 224.439 l
528.427 224.469 l
531.717 224.654 l
535.006 224.404 l
538.296 224.408 l
541.586 224.532 l
558.034 224.448 l
577.772 224.434 l
604.09 224.411 l
607.379 224.513 l
613.959 224.407 l
617.248 224.483 l
620.538 224.402 l
627.117 224.509 l
630.407 224.402 l
640.276 224.438 l
656.724 224.405 l
666.593 224.418 l
689.621 224.408 l
706.07 224.421 l
725.808 224.41 l
745.546 224.412 l
771.863 224.401 l
775.153 224.497 l
781.732 224.413 l
850.815 224.469 l
850.815 224.469 l
stroke
grestore
0.500 setlinewidth
0 setlinecap
0.000 setgray
gsave
/o {
gsave
newpath
translate
0.5 setlinewidth
1 setlinejoin
0 setlinecap
0 0 m
0 4 l
gsave
0.000 setgray
fill
grestore
stroke
grestore
} bind def
189.59 224.4 o
grestore
gsave
/o {
gsave
newpath
translate
0.5 setlinewidth
1 setlinejoin
0 setlinecap
0 0 m
0 -4 l
gsave
0.000 setgray
fill
grestore
stroke
grestore
} bind def
189.59 366.6 o
grestore
gsave
184.105820 212.837500 translate
0.000000 rotate
0.000000 0.140625 m /one glyphshow
6.362305 0.140625 m /zero glyphshow
grestore
gsave
/o {
gsave
newpath
translate
0.5 setlinewidth
1 setlinejoin
0 setlinecap
0 0 m
0 4 l
gsave
0.000 setgray
fill
grestore
stroke
grestore
} bind def
354.074 224.4 o
grestore
gsave
/o {
gsave
newpath
translate
0.5 setlinewidth
1 setlinejoin
0 setlinecap
0 0 m
0 -4 l
gsave
0.000 setgray
fill
grestore
stroke
grestore
} bind def
354.074 366.6 o
grestore
gsave
348.410029 212.837500 translate
0.000000 rotate
0.000000 0.140625 m /two glyphshow
6.362305 0.140625 m /zero glyphshow
grestore
gsave
/o {
gsave
newpath
translate
0.5 setlinewidth
1 setlinejoin
0 setlinecap
0 0 m
0 4 l
gsave
0.000 setgray
fill
grestore
stroke
grestore
} bind def
518.558 224.4 o
grestore
gsave
/o {
gsave
newpath
translate
0.5 setlinewidth
1 setlinejoin
0 setlinecap
0 0 m
0 -4 l
gsave
0.000 setgray
fill
grestore
stroke
grestore
} bind def
518.558 366.6 o
grestore
gsave
512.909550 212.837500 translate
0.000000 rotate
0.000000 0.140625 m /three glyphshow
6.362305 0.140625 m /zero glyphshow
grestore
gsave
/o {
gsave
newpath
translate
0.5 setlinewidth
1 setlinejoin
0 setlinecap
0 0 m
0 4 l
gsave
0.000 setgray
fill
grestore
stroke
grestore
} bind def
683.042 224.4 o
grestore
gsave
/o {
gsave
newpath
translate
0.5 setlinewidth
1 setlinejoin
0 setlinecap
0 0 m
0 -4 l
gsave
0.000 setgray
fill
grestore
stroke
grestore
} bind def
683.042 366.6 o
grestore
gsave
677.252822 212.837500 translate
0.000000 rotate
0.000000 0.140625 m /four glyphshow
6.362305 0.140625 m /zero glyphshow
grestore
gsave
/o {
gsave
newpath
translate
0.5 setlinewidth
1 setlinejoin
0 setlinecap
0 0 m
0 4 l
gsave
0.000 setgray
fill
grestore
stroke
grestore
} bind def
847.526 224.4 o
grestore
gsave
/o {
gsave
newpath
translate
0.5 setlinewidth
1 setlinejoin
0 setlinecap
0 0 m
0 -4 l
gsave
0.000 setgray
fill
grestore
stroke
grestore
} bind def
847.526 366.6 o
grestore
gsave
841.877344 212.837500 translate
0.000000 rotate
0.000000 0.140625 m /five glyphshow
6.362305 0.140625 m /zero glyphshow
grestore
gsave
389.446484 198.165625 translate
0.000000 rotate
0.000000 2.078125 m /F glyphshow
5.001953 2.078125 m /r glyphshow
8.863281 2.078125 m /e glyphshow
15.015625 2.078125 m /q glyphshow
21.363281 2.078125 m /space glyphshow
24.541992 2.078125 m /parenleft glyphshow
28.443359 2.078125 m /H glyphshow
35.962891 2.078125 m /z glyphshow
41.211914 2.078125 m /parenright glyphshow
45.113281 2.078125 m /comma glyphshow
48.291992 2.078125 m /space glyphshow
51.470703 2.078125 m /S glyphshow
57.818359 2.078125 m /m glyphshow
67.559570 2.078125 m /a glyphshow
73.687500 2.078125 m /l glyphshow
76.465820 2.078125 m /l glyphshow
79.244141 2.078125 m /space glyphshow
82.422852 2.078125 m /W glyphshow
91.685547 2.078125 m /o glyphshow
97.803711 2.078125 m /r glyphshow
101.915039 2.078125 m /l glyphshow
104.693359 2.078125 m /d glyphshow
grestore
gsave
/o {
gsave
newpath
translate
0.5 setlinewidth
1 setlinejoin
0 setlinecap
0 0 m
4 0 l
gsave
0.000 setgray
fill
grestore
stroke
grestore
} bind def
41.5547 224.4 o
grestore
gsave
/o {
gsave
newpath
translate
0.5 setlinewidth
1 setlinejoin
0 setlinecap
0 0 m
-4 0 l
gsave
0.000 setgray
fill
grestore
stroke
grestore
} bind def
847.526 224.4 o
grestore
gsave
22.960938 220.618750 translate
0.000000 rotate
0.000000 0.140625 m /zero glyphshow
6.362305 0.140625 m /period glyphshow
9.541016 0.140625 m /zero glyphshow
grestore
gsave
/o {
gsave
newpath
translate
0.5 setlinewidth
1 setlinejoin
0 setlinecap
0 0 m
4 0 l
gsave
0.000 setgray
fill
grestore
stroke
grestore
} bind def
41.5547 259.95 o
grestore
gsave
/o {
gsave
newpath
translate
0.5 setlinewidth
1 setlinejoin
0 setlinecap
0 0 m
-4 0 l
gsave
0.000 setgray
fill
grestore
stroke
grestore
} bind def
847.526 259.95 o
grestore
gsave
23.179688 256.168750 translate
0.000000 rotate
0.000000 0.140625 m /zero glyphshow
6.362305 0.140625 m /period glyphshow
9.541016 0.140625 m /five glyphshow
grestore
gsave
/o {
gsave
newpath
translate
0.5 setlinewidth
1 setlinejoin
0 setlinecap
0 0 m
4 0 l
gsave
0.000 setgray
fill
grestore
stroke
grestore
} bind def
41.5547 295.5 o
grestore
gsave
/o {
gsave
newpath
translate
0.5 setlinewidth
1 setlinejoin
0 setlinecap
0 0 m
-4 0 l
gsave
0.000 setgray
fill
grestore
stroke
grestore
} bind def
847.526 295.5 o
grestore
gsave
23.398438 291.718750 translate
0.000000 rotate
0.000000 0.140625 m /one glyphshow
6.362305 0.140625 m /period glyphshow
9.541016 0.140625 m /zero glyphshow
grestore
gsave
/o {
gsave
newpath
translate
0.5 setlinewidth
1 setlinejoin
0 setlinecap
0 0 m
4 0 l
gsave
0.000 setgray
fill
grestore
stroke
grestore
} bind def
41.5547 331.05 o
grestore
gsave
/o {
gsave
newpath
translate
0.5 setlinewidth
1 setlinejoin
0 setlinecap
0 0 m
-4 0 l
gsave
0.000 setgray
fill
grestore
stroke
grestore
} bind def
847.526 331.05 o
grestore
gsave
23.617188 327.331250 translate
0.000000 rotate
0.000000 0.140625 m /one glyphshow
6.362305 0.140625 m /period glyphshow
9.541016 0.140625 m /five glyphshow
grestore
gsave
/o {
gsave
newpath
translate
0.5 setlinewidth
1 setlinejoin
0 setlinecap
0 0 m
4 0 l
gsave
0.000 setgray
fill
grestore
stroke
grestore
} bind def
41.5547 366.6 o
grestore
gsave
/o {
gsave
newpath
translate
0.5 setlinewidth
1 setlinejoin
0 setlinecap
0 0 m
-4 0 l
gsave
0.000 setgray
fill
grestore
stroke
grestore
} bind def
847.526 366.6 o
grestore
gsave
23.039063 362.818750 translate
0.000000 rotate
0.000000 0.140625 m /two glyphshow
6.362305 0.140625 m /period glyphshow
9.541016 0.140625 m /zero glyphshow
grestore
gsave
17.960938 280.875000 translate
90.000000 rotate
0.000000 0.140625 m /P glyphshow
5.655273 0.140625 m /o glyphshow
11.773438 0.140625 m /w glyphshow
19.952148 0.140625 m /e glyphshow
26.104492 0.140625 m /r glyphshow
grestore
gsave
41.554688 369.459375 translate
0.000000 rotate
0.000000 0.140625 m /one glyphshow
6.362305 0.140625 m /e glyphshow
12.514648 0.140625 m /one glyphshow
18.876953 0.140625 m /zero glyphshow
grestore
1.000 setlinewidth
2 setlinecap
gsave
41.5547 366.6 m
847.526 366.6 l
stroke
grestore
gsave
847.526 224.4 m
847.526 366.6 l
stroke
grestore
gsave
41.5547 224.4 m
847.526 224.4 l
stroke
grestore
gsave
41.5547 224.4 m
41.5547 366.6 l
stroke
grestore
gsave
41.5547 36 m
847.526 36 l
847.526 178.2 l
41.5547 178.2 l
cl
1.000 setgray
fill
grestore
0.000 0.000 1.000 setrgbcolor
gsave
806 142.2 41.55 36 clipbox
38.265 36.0719 m
54.7134 36.0534 l
58.0031 36.0943 l
64.5824 36.0391 l
67.8721 36.0168 l
74.4515 36.268 l
77.7411 36.3152 l
81.0308 36.1863 l
84.3205 36.2664 l
87.6102 36.4962 l
94.1895 36.6836 l
97.4792 36.2179 l
100.769 36.7388 l
104.059 47.5878 l
107.348 71.3824 l
110.638 46.4107 l
113.928 39.0464 l
117.217 39.5031 l
120.507 40.2241 l
123.797 37.0302 l
127.086 36.4357 l
130.376 36.0609 l
133.666 36.7032 l
136.955 36.0228 l
140.245 36.9614 l
143.535 36.7239 l
146.824 36.2465 l
150.114 36.4742 l
153.404 37.5712 l
156.693 37.657 l
159.983 37.1586 l
163.273 36.8216 l
166.562 36.82 l
169.852 37.0094 l
173.142 36.981 l
176.431 36.0976 l
179.721 39.6046 l
183.011 36.1396 l
186.301 52.3105 l
189.59 36.7029 l
192.88 42.748 l
196.17 43.2744 l
199.459 50.8213 l
206.039 38.1362 l
209.328 36.419 l
212.618 36.157 l
215.908 36.902 l
219.197 36.416 l
222.487 38.1338 l
225.777 38.0426 l
229.066 37.5548 l
232.356 36.8884 l
235.646 37.523 l
238.935 36.9016 l
242.225 38.0312 l
245.515 38.7697 l
248.804 36.5954 l
252.094 36.0825 l
255.384 37.2377 l
258.673 37.5929 l
261.963 40.8521 l
265.253 36.8681 l
268.542 40.1542 l
271.832 39.5833 l
275.122 37.6197 l
278.411 41.62 l
281.701 50.5761 l
284.991 40.4804 l
288.281 43.7911 l
291.57 36.0505 l
294.86 36.8187 l
298.15 38.5475 l
301.439 36.2563 l
304.729 36.9327 l
308.019 37.1271 l
311.308 39.5871 l
314.598 36.505 l
317.888 36.6042 l
321.177 36.8464 l
324.467 39.0012 l
327.757 41.3744 l
331.046 38.2467 l
334.336 36.43 l
337.626 36.0975 l
340.915 39.5143 l
344.205 36.7924 l
347.495 38.3001 l
350.784 37.5519 l
354.074 39.0015 l
357.364 40.93 l
360.653 43.3236 l
363.943 40.1703 l
367.233 36.556 l
370.522 42.2829 l
373.812 36.2673 l
377.102 39.6747 l
380.392 36.5559 l
383.681 36.7752 l
386.971 36.4992 l
390.261 37.0189 l
393.55 36.4826 l
396.84 41.5255 l
400.13 36.6727 l
403.419 40.2234 l
406.709 37.7379 l
409.999 42.6501 l
413.288 36.9778 l
416.578 36.6337 l
419.868 36.6518 l
426.447 36.36 l
429.737 36.765 l
433.026 41.4729 l
436.316 37.7112 l
439.606 37.0736 l
442.895 43.6588 l
446.185 37.8607 l
449.475 36.5114 l
452.764 36.5341 l
456.054 36.0726 l
459.344 38.7833 l
462.633 37.769 l
465.923 39.1942 l
469.213 36.5254 l
472.502 36.6743 l
475.792 38.4179 l
479.082 39.2787 l
482.372 38.1189 l
485.661 41.1567 l
488.951 38.7561 l
492.241 38.4835 l
495.53 36.0348 l
498.82 36.7467 l
502.11 36.6357 l
505.399 36.9019 l
508.689 36.6292 l
511.979 36.159 l
515.268 39.9875 l
518.558 36.7976 l
521.848 36.1294 l
528.427 41.0737 l
531.717 36.7057 l
535.006 36.1936 l
538.296 37.0036 l
541.586 36.7679 l
544.875 39.8423 l
548.165 38.1313 l
551.455 36.0373 l
554.744 36.3664 l
558.034 39.0689 l
561.324 37.2164 l
567.903 38.98 l
571.193 39.0379 l
574.483 37.3826 l
577.772 36.5703 l
581.062 36.772 l
584.352 36.2089 l
587.641 37.179 l
590.931 37.7247 l
594.221 36.1765 l
597.51 36.3447 l
600.8 37.0275 l
604.09 36.07 l
607.379 39.2104 l
610.669 39.8759 l
613.959 36.2625 l
617.248 36.0927 l
620.538 38.4789 l
623.828 36.8924 l
627.117 37.5263 l
630.407 36.5222 l
633.697 36.1067 l
636.986 36.6613 l
640.276 36.095 l
643.566 40.5434 l
646.855 36.3669 l
653.435 37.2507 l
656.724 36.939 l
660.014 39.8147 l
663.304 36.4205 l
666.593 36.6404 l
669.883 37.2039 l
673.173 37.6288 l
676.463 36.0224 l
679.752 36.5527 l
683.042 36.0408 l
686.332 36.2709 l
689.621 39.5777 l
692.911 36.4139 l
696.201 36.3991 l
699.49 36.5522 l
702.78 37.4538 l
706.07 36.2837 l
709.359 37.5687 l
712.649 36.3199 l
715.939 36.1041 l
719.228 36.1322 l
722.518 36.8331 l
725.808 37.9031 l
729.097 36.6467 l
732.387 36.0594 l
735.677 36.4062 l
738.966 36.9037 l
742.256 40.3756 l
745.546 37.79 l
748.835 36.4623 l
752.125 37.1819 l
755.415 36.3007 l
758.704 36.0698 l
761.994 36.1452 l
765.284 36.8123 l
768.574 36.0167 l
771.863 37.2598 l
775.153 36.3658 l
778.443 36.8321 l
785.022 36.5586 l
788.312 36.2765 l
791.601 37.0777 l
794.891 36.2702 l
798.181 36.5033 l
801.47 36.1129 l
804.76 36.4361 l
808.05 36.0725 l
811.339 36.4936 l
817.919 36.1572 l
821.208 38.9417 l
824.498 36.5025 l
827.788 38.9292 l
831.077 36.1232 l
834.367 36.0193 l
837.657 36.3895 l
840.946 36.1835 l
844.236 36.2386 l
847.526 37.07 l
850.815 36.3231 l
850.815 36.3231 l
stroke
grestore
0.500 setlinewidth
0 setlinecap
0.000 setgray
gsave
/o {
gsave
newpath
translate
0.5 setlinewidth
1 setlinejoin
0 setlinecap
0 0 m
0 4 l
gsave
0.000 setgray
fill
grestore
stroke
grestore
} bind def
189.59 36 o
grestore
gsave
/o {
gsave
newpath
translate
0.5 setlinewidth
1 setlinejoin
0 setlinecap
0 0 m
0 -4 l
gsave
0.000 setgray
fill
grestore
stroke
grestore
} bind def
189.59 178.2 o
grestore
gsave
184.105820 24.437500 translate
0.000000 rotate
0.000000 0.140625 m /one glyphshow
6.362305 0.140625 m /zero glyphshow
grestore
gsave
/o {
gsave
newpath
translate
0.5 setlinewidth
1 setlinejoin
0 setlinecap
0 0 m
0 4 l
gsave
0.000 setgray
fill
grestore
stroke
grestore
} bind def
354.074 36 o
grestore
gsave
/o {
gsave
newpath
translate
0.5 setlinewidth
1 setlinejoin
0 setlinecap
0 0 m
0 -4 l
gsave
0.000 setgray
fill
grestore
stroke
grestore
} bind def
354.074 178.2 o
grestore
gsave
348.410029 24.437500 translate
0.000000 rotate
0.000000 0.140625 m /two glyphshow
6.362305 0.140625 m /zero glyphshow
grestore
gsave
/o {
gsave
newpath
translate
0.5 setlinewidth
1 setlinejoin
0 setlinecap
0 0 m
0 4 l
gsave
0.000 setgray
fill
grestore
stroke
grestore
} bind def
518.558 36 o
grestore
gsave
/o {
gsave
newpath
translate
0.5 setlinewidth
1 setlinejoin
0 setlinecap
0 0 m
0 -4 l
gsave
0.000 setgray
fill
grestore
stroke
grestore
} bind def
518.558 178.2 o
grestore
gsave
512.909550 24.437500 translate
0.000000 rotate
0.000000 0.140625 m /three glyphshow
6.362305 0.140625 m /zero glyphshow
grestore
gsave
/o {
gsave
newpath
translate
0.5 setlinewidth
1 setlinejoin
0 setlinecap
0 0 m
0 4 l
gsave
0.000 setgray
fill
grestore
stroke
grestore
} bind def
683.042 36 o
grestore
gsave
/o {
gsave
newpath
translate
0.5 setlinewidth
1 setlinejoin
0 setlinecap
0 0 m
0 -4 l
gsave
0.000 setgray
fill
grestore
stroke
grestore
} bind def
683.042 178.2 o
grestore
gsave
677.252822 24.437500 translate
0.000000 rotate
0.000000 0.140625 m /four glyphshow
6.362305 0.140625 m /zero glyphshow
grestore
gsave
/o {
gsave
newpath
translate
0.5 setlinewidth
1 setlinejoin
0 setlinecap
0 0 m
0 4 l
gsave
0.000 setgray
fill
grestore
stroke
grestore
} bind def
847.526 36 o
grestore
gsave
/o {
gsave
newpath
translate
0.5 setlinewidth
1 setlinejoin
0 setlinecap
0 0 m
0 -4 l
gsave
0.000 setgray
fill
grestore
stroke
grestore
} bind def
847.526 178.2 o
grestore
gsave
841.877344 24.437500 translate
0.000000 rotate
0.000000 0.140625 m /five glyphshow
6.362305 0.140625 m /zero glyphshow
grestore
gsave
375.626172 9.765625 translate
0.000000 rotate
0.000000 2.078125 m /F glyphshow
5.001953 2.078125 m /r glyphshow
8.863281 2.078125 m /e glyphshow
15.015625 2.078125 m /q glyphshow
21.363281 2.078125 m /space glyphshow
24.541992 2.078125 m /parenleft glyphshow
28.443359 2.078125 m /H glyphshow
35.962891 2.078125 m /z glyphshow
41.211914 2.078125 m /parenright glyphshow
45.113281 2.078125 m /comma glyphshow
48.291992 2.078125 m /space glyphshow
51.470703 2.078125 m /R glyphshow
58.168945 2.078125 m /a glyphshow
64.296875 2.078125 m /n glyphshow
70.634766 2.078125 m /d glyphshow
76.982422 2.078125 m /o glyphshow
83.100586 2.078125 m /m glyphshow
92.841797 2.078125 m /space glyphshow
96.020508 2.078125 m /N glyphshow
103.500977 2.078125 m /e glyphshow
109.653320 2.078125 m /t glyphshow
113.574219 2.078125 m /w glyphshow
121.752930 2.078125 m /o glyphshow
127.871094 2.078125 m /r glyphshow
131.982422 2.078125 m /k glyphshow
grestore
gsave
/o {
gsave
newpath
translate
0.5 setlinewidth
1 setlinejoin
0 setlinecap
0 0 m
4 0 l
gsave
0.000 setgray
fill
grestore
stroke
grestore
} bind def
41.5547 36 o
grestore
gsave
/o {
gsave
newpath
translate
0.5 setlinewidth
1 setlinejoin
0 setlinecap
0 0 m
-4 0 l
gsave
0.000 setgray
fill
grestore
stroke
grestore
} bind def
847.526 36 o
grestore
gsave
22.960938 32.218750 translate
0.000000 rotate
0.000000 0.140625 m /zero glyphshow
6.362305 0.140625 m /period glyphshow
9.541016 0.140625 m /zero glyphshow
grestore
gsave
/o {
gsave
newpath
translate
0.5 setlinewidth
1 setlinejoin
0 setlinecap
0 0 m
4 0 l
gsave
0.000 setgray
fill
grestore
stroke
grestore
} bind def
41.5547 71.55 o
grestore
gsave
/o {
gsave
newpath
translate
0.5 setlinewidth
1 setlinejoin
0 setlinecap
0 0 m
-4 0 l
gsave
0.000 setgray
fill
grestore
stroke
grestore
} bind def
847.526 71.55 o
grestore
gsave
23.179688 67.768750 translate
0.000000 rotate
0.000000 0.140625 m /zero glyphshow
6.362305 0.140625 m /period glyphshow
9.541016 0.140625 m /five glyphshow
grestore
gsave
/o {
gsave
newpath
translate
0.5 setlinewidth
1 setlinejoin
0 setlinecap
0 0 m
4 0 l
gsave
0.000 setgray
fill
grestore
stroke
grestore
} bind def
41.5547 107.1 o
grestore
gsave
/o {
gsave
newpath
translate
0.5 setlinewidth
1 setlinejoin
0 setlinecap
0 0 m
-4 0 l
gsave
0.000 setgray
fill
grestore
stroke
grestore
} bind def
847.526 107.1 o
grestore
gsave
23.398438 103.318750 translate
0.000000 rotate
0.000000 0.140625 m /one glyphshow
6.362305 0.140625 m /period glyphshow
9.541016 0.140625 m /zero glyphshow
grestore
gsave
/o {
gsave
newpath
translate
0.5 setlinewidth
1 setlinejoin
0 setlinecap
0 0 m
4 0 l
gsave
0.000 setgray
fill
grestore
stroke
grestore
} bind def
41.5547 142.65 o
grestore
gsave
/o {
gsave
newpath
translate
0.5 setlinewidth
1 setlinejoin
0 setlinecap
0 0 m
-4 0 l
gsave
0.000 setgray
fill
grestore
stroke
grestore
} bind def
847.526 142.65 o
grestore
gsave
23.617188 138.931250 translate
0.000000 rotate
0.000000 0.140625 m /one glyphshow
6.362305 0.140625 m /period glyphshow
9.541016 0.140625 m /five glyphshow
grestore
gsave
/o {
gsave
newpath
translate
0.5 setlinewidth
1 setlinejoin
0 setlinecap
0 0 m
4 0 l
gsave
0.000 setgray
fill
grestore
stroke
grestore
} bind def
41.5547 178.2 o
grestore
gsave
/o {
gsave
newpath
translate
0.5 setlinewidth
1 setlinejoin
0 setlinecap
0 0 m
-4 0 l
gsave
0.000 setgray
fill
grestore
stroke
grestore
} bind def
847.526 178.2 o
grestore
gsave
23.039063 174.418750 translate
0.000000 rotate
0.000000 0.140625 m /two glyphshow
6.362305 0.140625 m /period glyphshow
9.541016 0.140625 m /zero glyphshow
grestore
gsave
17.960938 92.475000 translate
90.000000 rotate
0.000000 0.140625 m /P glyphshow
5.655273 0.140625 m /o glyphshow
11.773438 0.140625 m /w glyphshow
19.952148 0.140625 m /e glyphshow
26.104492 0.140625 m /r glyphshow
grestore
gsave
41.554688 181.059375 translate
0.000000 rotate
0.000000 0.140625 m /one glyphshow
6.362305 0.140625 m /e glyphshow
12.514648 0.140625 m /one glyphshow
18.876953 0.140625 m /zero glyphshow
grestore
1.000 setlinewidth
2 setlinecap
gsave
41.5547 178.2 m
847.526 178.2 l
stroke
grestore
gsave
847.526 36 m
847.526 178.2 l
stroke
grestore
gsave
41.5547 36 m
847.526 36 l
stroke
grestore
gsave
41.5547 36 m
41.5547 178.2 l
stroke
grestore

end
showpage
