%!PS-Adobe-3.0 EPSF-3.0
%%Title: ../figures/fig2-powerspec.eps
%%Creator: matplotlib version 1.2.1, http://matplotlib.org/
%%CreationDate: Fri Sep 20 18:56:29 2013
%%Orientation: portrait
%%BoundingBox: -126 108 738 684
%%EndComments
%%BeginProlog
/mpldict 8 dict def
mpldict begin
/m { moveto } bind def
/l { lineto } bind def
/r { rlineto } bind def
/c { curveto } bind def
/cl { closepath } bind def
/box {
m
1 index 0 r
0 exch r
neg 0 r
cl
} bind def
/clipbox {
box
clip
newpath
} bind def
%!PS-Adobe-3.0 Resource-Font
%%Title: DejaVu Sans
%%Copyright: Copyright (c) 2003 by Bitstream, Inc. All Rights Reserved. Copyright (c) 2006 by Tavmjong Bah. All Rights Reserved. DejaVu changes are in public domain 
%%Creator: Converted from TrueType to type 3 by PPR
25 dict begin
/_d{bind def}bind def
/_m{moveto}_d
/_l{lineto}_d
/_cl{closepath eofill}_d
/_c{curveto}_d
/_sc{7 -1 roll{setcachedevice}{pop pop pop pop pop pop}ifelse}_d
/_e{exec}_d
/FontName /DejaVuSans def
/PaintType 0 def
/FontMatrix[.001 0 0 .001 0 0]def
/FontBBox[-1021 -415 1681 1167]def
/FontType 3 def
/Encoding [ /space /parenleft /parenright /comma /period /zero /one /two /three /four /five /six /eight /F /H /L /N /P /R /S /W /a /c /d /e /g /i /k /l /m /n /o /q /r /t /u /w /z ] def
/FontInfo 10 dict dup begin
/FamilyName (DejaVu Sans) def
/FullName (DejaVu Sans) def
/Notice (Copyright (c) 2003 by Bitstream, Inc. All Rights Reserved. Copyright (c) 2006 by Tavmjong Bah. All Rights Reserved. DejaVu changes are in public domain ) def
/Weight (Book) def
/Version (Version 2.33) def
/ItalicAngle 0.0 def
/isFixedPitch false def
/UnderlinePosition -130 def
/UnderlineThickness 90 def
end readonly def
/CharStrings 38 dict dup begin
/space{318 0 0 0 0 0 _sc
}_d
/parenleft{390 0 86 -131 310 759 _sc
310 759 _m
266 683 234 609 213 536 _c
191 463 181 389 181 314 _c
181 238 191 164 213 91 _c
234 17 266 -56 310 -131 _c
232 -131 _l
183 -54 146 20 122 94 _c
98 168 86 241 86 314 _c
86 386 98 459 122 533 _c
146 607 182 682 232 759 _c
310 759 _l
_cl}_d
/parenright{390 0 80 -131 304 759 _sc
80 759 _m
158 759 _l
206 682 243 607 267 533 _c
291 459 304 386 304 314 _c
304 241 291 168 267 94 _c
243 20 206 -54 158 -131 _c
80 -131 _l
123 -56 155 17 177 91 _c
198 164 209 238 209 314 _c
209 389 198 463 177 536 _c
155 609 123 683 80 759 _c
_cl}_d
/comma{318 0 77 -115 220 124 _sc
117 124 _m
220 124 _l
220 40 _l
140 -115 _l
77 -115 _l
117 40 _l
117 124 _l
_cl}_d
/period{318 0 107 0 210 124 _sc
107 124 _m
210 124 _l
210 0 _l
107 0 _l
107 124 _l
_cl}_d
/zero{636 0 66 -13 570 742 _sc
318 664 _m
267 664 229 639 203 589 _c
177 539 165 464 165 364 _c
165 264 177 189 203 139 _c
229 89 267 64 318 64 _c
369 64 407 89 433 139 _c
458 189 471 264 471 364 _c
471 464 458 539 433 589 _c
407 639 369 664 318 664 _c
318 742 _m
399 742 461 709 505 645 _c
548 580 570 486 570 364 _c
570 241 548 147 505 83 _c
461 19 399 -13 318 -13 _c
236 -13 173 19 130 83 _c
87 147 66 241 66 364 _c
66 486 87 580 130 645 _c
173 709 236 742 318 742 _c
_cl}_d
/one{636 0 110 0 544 729 _sc
124 83 _m
285 83 _l
285 639 _l
110 604 _l
110 694 _l
284 729 _l
383 729 _l
383 83 _l
544 83 _l
544 0 _l
124 0 _l
124 83 _l
_cl}_d
/two{{636 0 73 0 536 742 _sc
192 83 _m
536 83 _l
536 0 _l
73 0 _l
73 83 _l
110 121 161 173 226 239 _c
290 304 331 346 348 365 _c
380 400 402 430 414 455 _c
426 479 433 504 433 528 _c
433 566 419 598 392 622 _c
365 646 330 659 286 659 _c
255 659 222 653 188 643 _c
154 632 117 616 78 594 _c
78 694 _l
118 710 155 722 189 730 _c
223 738 255 742 284 742 _c
}_e{359 742 419 723 464 685 _c
509 647 532 597 532 534 _c
532 504 526 475 515 449 _c
504 422 484 390 454 354 _c
446 344 420 317 376 272 _c
332 227 271 164 192 83 _c
_cl}_e}_d
/three{{636 0 76 -13 556 742 _sc
406 393 _m
453 383 490 362 516 330 _c
542 298 556 258 556 212 _c
556 140 531 84 482 45 _c
432 6 362 -13 271 -13 _c
240 -13 208 -10 176 -4 _c
144 1 110 10 76 22 _c
76 117 _l
103 101 133 89 166 81 _c
198 73 232 69 268 69 _c
330 69 377 81 409 105 _c
441 129 458 165 458 212 _c
458 254 443 288 413 312 _c
383 336 341 349 287 349 _c
}_e{202 349 _l
202 430 _l
291 430 _l
339 430 376 439 402 459 _c
428 478 441 506 441 543 _c
441 580 427 609 401 629 _c
374 649 336 659 287 659 _c
260 659 231 656 200 650 _c
169 644 135 635 98 623 _c
98 711 _l
135 721 170 729 203 734 _c
235 739 266 742 296 742 _c
370 742 429 725 473 691 _c
517 657 539 611 539 553 _c
539 513 527 479 504 451 _c
481 423 448 403 406 393 _c
_cl}_e}_d
/four{636 0 49 0 580 729 _sc
378 643 _m
129 254 _l
378 254 _l
378 643 _l
352 729 _m
476 729 _l
476 254 _l
580 254 _l
580 172 _l
476 172 _l
476 0 _l
378 0 _l
378 172 _l
49 172 _l
49 267 _l
352 729 _l
_cl}_d
/five{{636 0 77 -13 549 729 _sc
108 729 _m
495 729 _l
495 646 _l
198 646 _l
198 467 _l
212 472 227 476 241 478 _c
255 480 270 482 284 482 _c
365 482 429 459 477 415 _c
525 370 549 310 549 234 _c
549 155 524 94 475 51 _c
426 8 357 -13 269 -13 _c
238 -13 207 -10 175 -6 _c
143 -1 111 6 77 17 _c
77 116 _l
106 100 136 88 168 80 _c
199 72 232 69 267 69 _c
}_e{323 69 368 83 401 113 _c
433 143 450 183 450 234 _c
450 284 433 324 401 354 _c
368 384 323 399 267 399 _c
241 399 214 396 188 390 _c
162 384 135 375 108 363 _c
108 729 _l
_cl}_e}_d
/six{{636 0 70 -13 573 742 _sc
330 404 _m
286 404 251 388 225 358 _c
199 328 186 286 186 234 _c
186 181 199 139 225 109 _c
251 79 286 64 330 64 _c
374 64 409 79 435 109 _c
461 139 474 181 474 234 _c
474 286 461 328 435 358 _c
409 388 374 404 330 404 _c
526 713 _m
526 623 _l
501 635 476 644 451 650 _c
425 656 400 659 376 659 _c
310 659 260 637 226 593 _c
}_e{192 549 172 482 168 394 _c
187 422 211 444 240 459 _c
269 474 301 482 336 482 _c
409 482 467 459 509 415 _c
551 371 573 310 573 234 _c
573 159 550 99 506 54 _c
462 9 403 -13 330 -13 _c
246 -13 181 19 137 83 _c
92 147 70 241 70 364 _c
70 479 97 571 152 639 _c
206 707 280 742 372 742 _c
396 742 421 739 447 735 _c
472 730 498 723 526 713 _c
_cl}_e}_d
/eight{{636 0 68 -13 568 742 _sc
318 346 _m
271 346 234 333 207 308 _c
180 283 167 249 167 205 _c
167 161 180 126 207 101 _c
234 76 271 64 318 64 _c
364 64 401 76 428 102 _c
455 127 469 161 469 205 _c
469 249 455 283 429 308 _c
402 333 365 346 318 346 _c
219 388 _m
177 398 144 418 120 447 _c
96 476 85 511 85 553 _c
85 611 105 657 147 691 _c
188 725 245 742 318 742 _c
}_e{390 742 447 725 489 691 _c
530 657 551 611 551 553 _c
551 511 539 476 515 447 _c
491 418 459 398 417 388 _c
464 377 501 355 528 323 _c
554 291 568 251 568 205 _c
568 134 546 80 503 43 _c
459 5 398 -13 318 -13 _c
237 -13 175 5 132 43 _c
89 80 68 134 68 205 _c
68 251 81 291 108 323 _c
134 355 171 377 219 388 _c
183 544 _m
183 506 194 476 218 455 _c
}_e{242 434 275 424 318 424 _c
360 424 393 434 417 455 _c
441 476 453 506 453 544 _c
453 582 441 611 417 632 _c
393 653 360 664 318 664 _c
275 664 242 653 218 632 _c
194 611 183 582 183 544 _c
_cl}_e}_d
/F{575 0 98 0 517 729 _sc
98 729 _m
517 729 _l
517 646 _l
197 646 _l
197 431 _l
486 431 _l
486 348 _l
197 348 _l
197 0 _l
98 0 _l
98 729 _l
_cl}_d
/H{752 0 98 0 654 729 _sc
98 729 _m
197 729 _l
197 430 _l
555 430 _l
555 729 _l
654 729 _l
654 0 _l
555 0 _l
555 347 _l
197 347 _l
197 0 _l
98 0 _l
98 729 _l
_cl}_d
/L{557 0 98 0 552 729 _sc
98 729 _m
197 729 _l
197 83 _l
552 83 _l
552 0 _l
98 0 _l
98 729 _l
_cl}_d
/N{748 0 98 0 650 729 _sc
98 729 _m
231 729 _l
554 119 _l
554 729 _l
650 729 _l
650 0 _l
517 0 _l
194 610 _l
194 0 _l
98 0 _l
98 729 _l
_cl}_d
/P{603 0 98 0 569 729 _sc
197 648 _m
197 374 _l
321 374 _l
367 374 402 385 427 409 _c
452 433 465 467 465 511 _c
465 555 452 588 427 612 _c
402 636 367 648 321 648 _c
197 648 _l
98 729 _m
321 729 _l
402 729 464 710 506 673 _c
548 636 569 582 569 511 _c
569 439 548 384 506 348 _c
464 311 402 293 321 293 _c
197 293 _l
197 0 _l
98 0 _l
98 729 _l
_cl}_d
/R{{695 0 98 0 666 729 _sc
444 342 _m
465 334 486 319 506 296 _c
526 272 546 240 566 199 _c
666 0 _l
560 0 _l
467 187 _l
443 235 419 268 397 284 _c
374 300 343 308 304 308 _c
197 308 _l
197 0 _l
98 0 _l
98 729 _l
321 729 _l
404 729 466 711 507 677 _c
548 642 569 589 569 519 _c
569 473 558 434 537 404 _c
515 374 484 353 444 342 _c
197 648 _m
197 389 _l
321 389 _l
}_e{368 389 404 400 428 422 _c
452 444 465 476 465 519 _c
465 561 452 593 428 615 _c
404 637 368 648 321 648 _c
197 648 _l
_cl}_e}_d
/S{{635 0 66 -13 579 742 _sc
535 705 _m
535 609 _l
497 627 462 640 429 649 _c
395 657 363 662 333 662 _c
279 662 237 651 208 631 _c
179 610 165 580 165 542 _c
165 510 174 485 194 469 _c
213 452 250 439 304 429 _c
364 417 _l
437 403 491 378 526 343 _c
561 307 579 260 579 201 _c
579 130 555 77 508 41 _c
460 5 391 -13 300 -13 _c
265 -13 228 -9 189 -2 _c
}_e{150 5 110 16 69 32 _c
69 134 _l
109 111 148 94 186 83 _c
224 71 262 66 300 66 _c
356 66 399 77 430 99 _c
460 121 476 152 476 194 _c
476 230 465 258 443 278 _c
421 298 385 313 335 323 _c
275 335 _l
201 349 148 372 115 404 _c
82 435 66 478 66 534 _c
66 598 88 649 134 686 _c
179 723 242 742 322 742 _c
356 742 390 739 426 733 _c
461 727 497 717 535 705 _c
}_e{_cl}_e}_d
/W{989 0 33 0 956 729 _sc
33 729 _m
133 729 _l
286 113 _l
439 729 _l
550 729 _l
703 113 _l
856 729 _l
956 729 _l
773 0 _l
649 0 _l
495 633 _l
340 0 _l
216 0 _l
33 729 _l
_cl}_d
/a{{613 0 60 -13 522 560 _sc
343 275 _m
270 275 220 266 192 250 _c
164 233 150 205 150 165 _c
150 133 160 107 181 89 _c
202 70 231 61 267 61 _c
317 61 357 78 387 114 _c
417 149 432 196 432 255 _c
432 275 _l
343 275 _l
522 312 _m
522 0 _l
432 0 _l
432 83 _l
411 49 385 25 355 10 _c
325 -5 287 -13 243 -13 _c
187 -13 142 2 109 33 _c
76 64 60 106 60 159 _c
}_e{60 220 80 266 122 298 _c
163 329 224 345 306 345 _c
432 345 _l
432 354 _l
432 395 418 427 391 450 _c
364 472 326 484 277 484 _c
245 484 215 480 185 472 _c
155 464 127 453 100 439 _c
100 522 _l
132 534 164 544 195 550 _c
226 556 256 560 286 560 _c
365 560 424 539 463 498 _c
502 457 522 395 522 312 _c
_cl}_e}_d
/c{{550 0 55 -13 488 560 _sc
488 526 _m
488 442 _l
462 456 437 466 411 473 _c
385 480 360 484 334 484 _c
276 484 230 465 198 428 _c
166 391 150 339 150 273 _c
150 206 166 154 198 117 _c
230 80 276 62 334 62 _c
360 62 385 65 411 72 _c
437 79 462 90 488 104 _c
488 21 _l
462 9 436 0 410 -5 _c
383 -10 354 -13 324 -13 _c
242 -13 176 12 128 64 _c
}_e{79 115 55 185 55 273 _c
55 362 79 432 128 483 _c
177 534 244 560 330 560 _c
358 560 385 557 411 551 _c
437 545 463 537 488 526 _c
_cl}_e}_d
/d{{635 0 55 -13 544 760 _sc
454 464 _m
454 760 _l
544 760 _l
544 0 _l
454 0 _l
454 82 _l
435 49 411 25 382 10 _c
353 -5 319 -13 279 -13 _c
213 -13 159 13 117 65 _c
75 117 55 187 55 273 _c
55 359 75 428 117 481 _c
159 533 213 560 279 560 _c
319 560 353 552 382 536 _c
411 520 435 496 454 464 _c
148 273 _m
148 207 161 155 188 117 _c
215 79 253 61 301 61 _c
}_e{348 61 385 79 413 117 _c
440 155 454 207 454 273 _c
454 339 440 390 413 428 _c
385 466 348 485 301 485 _c
253 485 215 466 188 428 _c
161 390 148 339 148 273 _c
_cl}_e}_d
/e{{615 0 55 -13 562 560 _sc
562 296 _m
562 252 _l
149 252 _l
153 190 171 142 205 110 _c
238 78 284 62 344 62 _c
378 62 412 66 444 74 _c
476 82 509 95 541 113 _c
541 28 _l
509 14 476 3 442 -3 _c
408 -9 373 -13 339 -13 _c
251 -13 182 12 131 62 _c
80 112 55 181 55 268 _c
55 357 79 428 127 481 _c
175 533 241 560 323 560 _c
397 560 455 536 498 489 _c
}_e{540 441 562 377 562 296 _c
472 322 _m
471 371 457 410 431 440 _c
404 469 368 484 324 484 _c
274 484 234 469 204 441 _c
174 413 156 373 152 322 _c
472 322 _l
_cl}_e}_d
/g{{635 0 55 -207 544 560 _sc
454 280 _m
454 344 440 395 414 431 _c
387 467 349 485 301 485 _c
253 485 215 467 188 431 _c
161 395 148 344 148 280 _c
148 215 161 165 188 129 _c
215 93 253 75 301 75 _c
349 75 387 93 414 129 _c
440 165 454 215 454 280 _c
544 68 _m
544 -24 523 -93 482 -139 _c
440 -184 377 -207 292 -207 _c
260 -207 231 -204 203 -200 _c
175 -195 147 -188 121 -178 _c
}_e{121 -91 _l
147 -105 173 -115 199 -122 _c
225 -129 251 -133 278 -133 _c
336 -133 380 -117 410 -87 _c
439 -56 454 -10 454 52 _c
454 96 _l
435 64 411 40 382 24 _c
353 8 319 0 279 0 _c
211 0 157 25 116 76 _c
75 127 55 195 55 280 _c
55 364 75 432 116 483 _c
157 534 211 560 279 560 _c
319 560 353 552 382 536 _c
411 520 435 496 454 464 _c
454 547 _l
544 547 _l
}_e{544 68 _l
_cl}_e}_d
/i{278 0 94 0 184 760 _sc
94 547 _m
184 547 _l
184 0 _l
94 0 _l
94 547 _l
94 760 _m
184 760 _l
184 646 _l
94 646 _l
94 760 _l
_cl}_d
/k{579 0 91 0 576 760 _sc
91 760 _m
181 760 _l
181 311 _l
449 547 _l
564 547 _l
274 291 _l
576 0 _l
459 0 _l
181 267 _l
181 0 _l
91 0 _l
91 760 _l
_cl}_d
/l{278 0 94 0 184 760 _sc
94 760 _m
184 760 _l
184 0 _l
94 0 _l
94 760 _l
_cl}_d
/m{{974 0 91 0 889 560 _sc
520 442 _m
542 482 569 511 600 531 _c
631 550 668 560 711 560 _c
767 560 811 540 842 500 _c
873 460 889 403 889 330 _c
889 0 _l
799 0 _l
799 327 _l
799 379 789 418 771 444 _c
752 469 724 482 686 482 _c
639 482 602 466 575 435 _c
548 404 535 362 535 309 _c
535 0 _l
445 0 _l
445 327 _l
445 379 435 418 417 444 _c
398 469 369 482 331 482 _c
}_e{285 482 248 466 221 435 _c
194 404 181 362 181 309 _c
181 0 _l
91 0 _l
91 547 _l
181 547 _l
181 462 _l
201 495 226 520 255 536 _c
283 552 317 560 357 560 _c
397 560 430 550 458 530 _c
486 510 506 480 520 442 _c
_cl}_e}_d
/n{634 0 91 0 549 560 _sc
549 330 _m
549 0 _l
459 0 _l
459 327 _l
459 379 448 417 428 443 _c
408 469 378 482 338 482 _c
289 482 251 466 223 435 _c
195 404 181 362 181 309 _c
181 0 _l
91 0 _l
91 547 _l
181 547 _l
181 462 _l
202 494 227 519 257 535 _c
286 551 320 560 358 560 _c
420 560 468 540 500 501 _c
532 462 549 405 549 330 _c
_cl}_d
/o{612 0 55 -13 557 560 _sc
306 484 _m
258 484 220 465 192 427 _c
164 389 150 338 150 273 _c
150 207 163 156 191 118 _c
219 80 257 62 306 62 _c
354 62 392 80 420 118 _c
448 156 462 207 462 273 _c
462 337 448 389 420 427 _c
392 465 354 484 306 484 _c
306 560 _m
384 560 445 534 490 484 _c
534 433 557 363 557 273 _c
557 183 534 113 490 63 _c
445 12 384 -13 306 -13 _c
227 -13 165 12 121 63 _c
77 113 55 183 55 273 _c
55 363 77 433 121 484 _c
165 534 227 560 306 560 _c
_cl}_d
/q{{635 0 55 -207 544 560 _sc
148 273 _m
148 207 161 155 188 117 _c
215 79 253 61 301 61 _c
348 61 385 79 413 117 _c
440 155 454 207 454 273 _c
454 339 440 390 413 428 _c
385 466 348 485 301 485 _c
253 485 215 466 188 428 _c
161 390 148 339 148 273 _c
454 82 _m
435 49 411 25 382 10 _c
353 -5 319 -13 279 -13 _c
213 -13 159 13 117 65 _c
75 117 55 187 55 273 _c
}_e{55 359 75 428 117 481 _c
159 533 213 560 279 560 _c
319 560 353 552 382 536 _c
411 520 435 496 454 464 _c
454 547 _l
544 547 _l
544 -207 _l
454 -207 _l
454 82 _l
_cl}_e}_d
/r{411 0 91 0 411 560 _sc
411 463 _m
401 469 390 473 378 476 _c
366 478 353 480 339 480 _c
288 480 249 463 222 430 _c
194 397 181 350 181 288 _c
181 0 _l
91 0 _l
91 547 _l
181 547 _l
181 462 _l
199 495 224 520 254 536 _c
284 552 321 560 365 560 _c
371 560 378 559 386 559 _c
393 558 401 557 411 555 _c
411 463 _l
_cl}_d
/t{392 0 27 0 368 702 _sc
183 702 _m
183 547 _l
368 547 _l
368 477 _l
183 477 _l
183 180 _l
183 135 189 106 201 94 _c
213 81 238 75 276 75 _c
368 75 _l
368 0 _l
276 0 _l
206 0 158 13 132 39 _c
106 65 93 112 93 180 _c
93 477 _l
27 477 _l
27 547 _l
93 547 _l
93 702 _l
183 702 _l
_cl}_d
/u{634 0 85 -13 543 560 _sc
85 216 _m
85 547 _l
175 547 _l
175 219 _l
175 167 185 129 205 103 _c
225 77 255 64 296 64 _c
344 64 383 79 411 110 _c
439 141 453 183 453 237 _c
453 547 _l
543 547 _l
543 0 _l
453 0 _l
453 84 _l
431 50 405 26 377 10 _c
348 -5 315 -13 277 -13 _c
214 -13 166 6 134 45 _c
101 83 85 140 85 216 _c
311 560 _m
311 560 _l
_cl}_d
/w{818 0 42 0 776 547 _sc
42 547 _m
132 547 _l
244 120 _l
356 547 _l
462 547 _l
574 120 _l
686 547 _l
776 547 _l
633 0 _l
527 0 _l
409 448 _l
291 0 _l
185 0 _l
42 547 _l
_cl}_d
/z{525 0 43 0 482 547 _sc
55 547 _m
482 547 _l
482 465 _l
144 72 _l
482 72 _l
482 0 _l
43 0 _l
43 82 _l
381 475 _l
55 475 _l
55 547 _l
_cl}_d
end readonly def

/BuildGlyph
 {exch begin
 CharStrings exch
 2 copy known not{pop /.notdef}if
 true 3 1 roll get exec
 end}_d

/BuildChar {
 1 index /Encoding get exch get
 1 index /BuildGlyph get exec
}_d

FontName currentdict end definefont pop
end
%%EndProlog
mpldict begin
-126 108 translate
864 576 0 0 clipbox
gsave
0 0 m
864 0 l
864 576 l
0 576 l
cl
1.000 setgray
fill
grestore
gsave
41.5828 412.8 m
847.526 412.8 l
847.526 555 l
41.5828 555 l
cl
1.000 setgray
fill
grestore
1.000 setlinewidth
1 setlinejoin
2 setlinecap
[] 0 setdash
0.000 0.000 1.000 setrgbcolor
gsave
805.9 142.2 41.58 412.8 clipbox
38.2932 412.837 m
54.7411 412.925 l
58.0306 412.819 l
64.6098 413.062 l
67.8993 413.354 l
71.1889 416.634 l
74.4784 413.757 l
77.768 413.692 l
81.0576 413.053 l
84.3471 413.129 l
87.6367 417.776 l
90.9263 412.807 l
94.2158 413.233 l
97.5054 412.827 l
100.795 415.174 l
104.085 414.874 l
107.374 413.162 l
110.664 414.942 l
113.953 415.427 l
117.243 413.942 l
120.532 414.494 l
127.111 413.308 l
130.401 414.059 l
133.691 413.596 l
136.98 412.911 l
140.27 412.964 l
143.559 413.21 l
146.849 414.416 l
150.138 413.962 l
153.428 413.183 l
160.007 412.942 l
163.297 414.188 l
166.586 413.151 l
169.876 413.309 l
173.165 413.198 l
176.455 413.895 l
179.744 412.86 l
186.324 413.195 l
189.613 414.673 l
192.903 413.207 l
196.192 413.252 l
199.482 412.883 l
202.771 412.94 l
206.061 412.856 l
209.351 413.472 l
212.64 412.935 l
215.93 413.448 l
219.219 412.865 l
222.509 413.121 l
229.088 412.945 l
232.377 413.235 l
238.957 413.188 l
242.246 412.871 l
248.825 412.867 l
252.115 412.956 l
255.404 413.525 l
258.694 413.047 l
261.984 412.938 l
265.273 413.181 l
275.142 412.875 l
278.431 413.009 l
281.721 412.827 l
285.01 412.814 l
288.3 413.126 l
291.59 412.805 l
294.879 412.957 l
301.458 413.014 l
304.748 412.801 l
308.037 412.934 l
311.327 412.87 l
314.617 412.936 l
317.906 412.855 l
324.485 413.196 l
327.775 412.809 l
334.354 412.907 l
337.643 413.3 l
340.933 412.849 l
344.223 413.025 l
347.512 413.053 l
350.802 412.809 l
354.091 412.997 l
357.381 412.829 l
363.96 412.829 l
367.25 412.953 l
390.277 412.802 l
393.566 413.028 l
403.435 412.99 l
406.724 413.046 l
410.014 412.839 l
413.303 412.835 l
416.593 413.001 l
419.883 412.842 l
423.172 412.863 l
426.462 413.031 l
433.041 412.825 l
456.068 412.807 l
462.647 412.899 l
465.936 412.804 l
469.226 412.95 l
475.805 412.812 l
485.674 412.94 l
488.963 412.814 l
498.832 412.817 l
561.334 412.852 l
571.202 412.816 l
613.967 412.817 l
636.994 412.804 l
778.445 412.801 l
850.815 412.8 l
850.815 412.8 l
stroke
grestore
0.500 setlinewidth
0 setlinecap
0.000 setgray
gsave
/o {
gsave
newpath
translate
0.5 setlinewidth
1 setlinejoin
0 setlinecap
0 0 m
0 4 l
gsave
0.000 setgray
fill
grestore
stroke
grestore
} bind def
189.613 412.8 o
grestore
gsave
/o {
gsave
newpath
translate
0.5 setlinewidth
1 setlinejoin
0 setlinecap
0 0 m
0 -4 l
gsave
0.000 setgray
fill
grestore
stroke
grestore
} bind def
189.613 555 o
grestore
/DejaVuSans findfont
10.000 scalefont
setfont
gsave
184.128779 401.237500 translate
0.000000 rotate
0.000000 0.140625 m /one glyphshow
6.362305 0.140625 m /zero glyphshow
grestore
gsave
/o {
gsave
newpath
translate
0.5 setlinewidth
1 setlinejoin
0 setlinecap
0 0 m
0 4 l
gsave
0.000 setgray
fill
grestore
stroke
grestore
} bind def
354.091 412.8 o
grestore
gsave
/o {
gsave
newpath
translate
0.5 setlinewidth
1 setlinejoin
0 setlinecap
0 0 m
0 -4 l
gsave
0.000 setgray
fill
grestore
stroke
grestore
} bind def
354.091 555 o
grestore
gsave
348.427248 401.237500 translate
0.000000 rotate
0.000000 0.140625 m /two glyphshow
6.362305 0.140625 m /zero glyphshow
grestore
gsave
/o {
gsave
newpath
translate
0.5 setlinewidth
1 setlinejoin
0 setlinecap
0 0 m
0 4 l
gsave
0.000 setgray
fill
grestore
stroke
grestore
} bind def
518.569 412.8 o
grestore
gsave
/o {
gsave
newpath
translate
0.5 setlinewidth
1 setlinejoin
0 setlinecap
0 0 m
0 -4 l
gsave
0.000 setgray
fill
grestore
stroke
grestore
} bind def
518.569 555 o
grestore
gsave
512.921030 401.237500 translate
0.000000 rotate
0.000000 0.140625 m /three glyphshow
6.362305 0.140625 m /zero glyphshow
grestore
gsave
/o {
gsave
newpath
translate
0.5 setlinewidth
1 setlinejoin
0 setlinecap
0 0 m
0 4 l
gsave
0.000 setgray
fill
grestore
stroke
grestore
} bind def
683.048 412.8 o
grestore
gsave
/o {
gsave
newpath
translate
0.5 setlinewidth
1 setlinejoin
0 setlinecap
0 0 m
0 -4 l
gsave
0.000 setgray
fill
grestore
stroke
grestore
} bind def
683.048 555 o
grestore
gsave
677.258562 401.237500 translate
0.000000 rotate
0.000000 0.140625 m /four glyphshow
6.362305 0.140625 m /zero glyphshow
grestore
gsave
/o {
gsave
newpath
translate
0.5 setlinewidth
1 setlinejoin
0 setlinecap
0 0 m
0 4 l
gsave
0.000 setgray
fill
grestore
stroke
grestore
} bind def
847.526 412.8 o
grestore
gsave
/o {
gsave
newpath
translate
0.5 setlinewidth
1 setlinejoin
0 setlinecap
0 0 m
0 -4 l
gsave
0.000 setgray
fill
grestore
stroke
grestore
} bind def
847.526 555 o
grestore
gsave
841.877344 401.237500 translate
0.000000 rotate
0.000000 0.140625 m /five glyphshow
6.362305 0.140625 m /zero glyphshow
grestore
gsave
381.327734 386.565625 translate
0.000000 rotate
0.000000 2.078125 m /F glyphshow
5.001953 2.078125 m /r glyphshow
8.863281 2.078125 m /e glyphshow
15.015625 2.078125 m /q glyphshow
21.363281 2.078125 m /space glyphshow
24.541992 2.078125 m /parenleft glyphshow
28.443359 2.078125 m /H glyphshow
35.962891 2.078125 m /z glyphshow
41.211914 2.078125 m /parenright glyphshow
45.113281 2.078125 m /comma glyphshow
48.291992 2.078125 m /space glyphshow
51.470703 2.078125 m /R glyphshow
57.918945 2.078125 m /e glyphshow
64.071289 2.078125 m /g glyphshow
70.418945 2.078125 m /u glyphshow
76.756836 2.078125 m /l glyphshow
79.535156 2.078125 m /a glyphshow
85.663086 2.078125 m /r glyphshow
89.774414 2.078125 m /space glyphshow
92.953125 2.078125 m /L glyphshow
98.524414 2.078125 m /a glyphshow
104.652344 2.078125 m /t glyphshow
108.573242 2.078125 m /t glyphshow
112.494141 2.078125 m /i glyphshow
115.272461 2.078125 m /c glyphshow
120.770508 2.078125 m /e glyphshow
grestore
gsave
/o {
gsave
newpath
translate
0.5 setlinewidth
1 setlinejoin
0 setlinecap
0 0 m
4 0 l
gsave
0.000 setgray
fill
grestore
stroke
grestore
} bind def
41.5828 412.8 o
grestore
gsave
/o {
gsave
newpath
translate
0.5 setlinewidth
1 setlinejoin
0 setlinecap
0 0 m
-4 0 l
gsave
0.000 setgray
fill
grestore
stroke
grestore
} bind def
847.526 412.8 o
grestore
gsave
22.989063 409.018750 translate
0.000000 rotate
0.000000 0.140625 m /zero glyphshow
6.362305 0.140625 m /period glyphshow
9.541016 0.140625 m /zero glyphshow
grestore
gsave
/o {
gsave
newpath
translate
0.5 setlinewidth
1 setlinejoin
0 setlinecap
0 0 m
4 0 l
gsave
0.000 setgray
fill
grestore
stroke
grestore
} bind def
41.5828 441.24 o
grestore
gsave
/o {
gsave
newpath
translate
0.5 setlinewidth
1 setlinejoin
0 setlinecap
0 0 m
-4 0 l
gsave
0.000 setgray
fill
grestore
stroke
grestore
} bind def
847.526 441.24 o
grestore
gsave
23.332813 437.458750 translate
0.000000 rotate
0.000000 0.140625 m /zero glyphshow
6.362305 0.140625 m /period glyphshow
9.541016 0.140625 m /two glyphshow
grestore
gsave
/o {
gsave
newpath
translate
0.5 setlinewidth
1 setlinejoin
0 setlinecap
0 0 m
4 0 l
gsave
0.000 setgray
fill
grestore
stroke
grestore
} bind def
41.5828 469.68 o
grestore
gsave
/o {
gsave
newpath
translate
0.5 setlinewidth
1 setlinejoin
0 setlinecap
0 0 m
-4 0 l
gsave
0.000 setgray
fill
grestore
stroke
grestore
} bind def
847.526 469.68 o
grestore
gsave
22.895313 465.898750 translate
0.000000 rotate
0.000000 0.140625 m /zero glyphshow
6.362305 0.140625 m /period glyphshow
9.541016 0.140625 m /four glyphshow
grestore
gsave
/o {
gsave
newpath
translate
0.5 setlinewidth
1 setlinejoin
0 setlinecap
0 0 m
4 0 l
gsave
0.000 setgray
fill
grestore
stroke
grestore
} bind def
41.5828 498.12 o
grestore
gsave
/o {
gsave
newpath
translate
0.5 setlinewidth
1 setlinejoin
0 setlinecap
0 0 m
-4 0 l
gsave
0.000 setgray
fill
grestore
stroke
grestore
} bind def
847.526 498.12 o
grestore
gsave
22.957813 494.338750 translate
0.000000 rotate
0.000000 0.140625 m /zero glyphshow
6.362305 0.140625 m /period glyphshow
9.541016 0.140625 m /six glyphshow
grestore
gsave
/o {
gsave
newpath
translate
0.5 setlinewidth
1 setlinejoin
0 setlinecap
0 0 m
4 0 l
gsave
0.000 setgray
fill
grestore
stroke
grestore
} bind def
41.5828 526.56 o
grestore
gsave
/o {
gsave
newpath
translate
0.5 setlinewidth
1 setlinejoin
0 setlinecap
0 0 m
-4 0 l
gsave
0.000 setgray
fill
grestore
stroke
grestore
} bind def
847.526 526.56 o
grestore
gsave
23.004688 522.778750 translate
0.000000 rotate
0.000000 0.140625 m /zero glyphshow
6.362305 0.140625 m /period glyphshow
9.541016 0.140625 m /eight glyphshow
grestore
gsave
/o {
gsave
newpath
translate
0.5 setlinewidth
1 setlinejoin
0 setlinecap
0 0 m
4 0 l
gsave
0.000 setgray
fill
grestore
stroke
grestore
} bind def
41.5828 555 o
grestore
gsave
/o {
gsave
newpath
translate
0.5 setlinewidth
1 setlinejoin
0 setlinecap
0 0 m
-4 0 l
gsave
0.000 setgray
fill
grestore
stroke
grestore
} bind def
847.526 555 o
grestore
gsave
23.426563 551.218750 translate
0.000000 rotate
0.000000 0.140625 m /one glyphshow
6.362305 0.140625 m /period glyphshow
9.541016 0.140625 m /zero glyphshow
grestore
gsave
17.895313 469.275000 translate
90.000000 rotate
0.000000 0.140625 m /P glyphshow
5.655273 0.140625 m /o glyphshow
11.773438 0.140625 m /w glyphshow
19.952148 0.140625 m /e glyphshow
26.104492 0.140625 m /r glyphshow
grestore
gsave
41.582813 557.859375 translate
0.000000 rotate
0.000000 0.140625 m /one glyphshow
6.362305 0.140625 m /e glyphshow
12.514648 0.140625 m /one glyphshow
18.876953 0.140625 m /two glyphshow
grestore
1.000 setlinewidth
2 setlinecap
gsave
41.5828 555 m
847.526 555 l
stroke
grestore
gsave
847.526 412.8 m
847.526 555 l
stroke
grestore
gsave
41.5828 412.8 m
847.526 412.8 l
stroke
grestore
gsave
41.5828 412.8 m
41.5828 555 l
stroke
grestore
gsave
41.5828 224.4 m
847.526 224.4 l
847.526 366.6 l
41.5828 366.6 l
cl
1.000 setgray
fill
grestore
0.000 0.000 1.000 setrgbcolor
gsave
805.9 142.2 41.58 224.4 clipbox
38.2932 224.425 m
41.5828 224.622 l
48.1619 224.401 l
51.4515 224.639 l
58.0306 224.462 l
61.3202 224.71 l
64.6098 225.136 l
67.8993 224.523 l
71.1889 224.484 l
74.4784 226.234 l
77.768 225.951 l
81.0576 224.681 l
84.3471 225.615 l
87.6367 225.045 l
90.9263 227.163 l
94.2158 232.957 l
97.5054 283.571 l
100.795 370.36 l
104.085 239.046 l
107.374 254.986 l
110.664 232.407 l
113.953 224.513 l
117.243 228.72 l
120.532 228.653 l
123.822 227.562 l
127.111 224.498 l
130.401 224.871 l
133.691 224.779 l
136.98 224.446 l
140.27 227.723 l
143.559 224.95 l
146.849 225.397 l
150.138 228.364 l
153.428 235.436 l
156.718 228.949 l
160.007 225.169 l
163.297 228.984 l
166.586 232.486 l
169.876 228.604 l
173.165 298.03 l
176.455 230.022 l
179.744 225.063 l
183.034 252.878 l
186.324 236.751 l
189.613 224.448 l
192.903 230.347 l
196.192 225.722 l
199.482 230.068 l
202.771 227.814 l
206.061 224.688 l
209.351 225.797 l
212.64 226.297 l
215.93 226.166 l
219.219 225.279 l
222.509 226.627 l
225.798 225.311 l
229.088 229.177 l
232.377 229.184 l
235.667 229.595 l
238.957 232.159 l
242.246 231.114 l
245.536 237.13 l
248.825 233.905 l
252.115 224.483 l
255.404 233.582 l
258.694 230.466 l
261.984 228.87 l
265.273 224.605 l
268.563 228.041 l
271.852 224.698 l
275.142 224.752 l
278.431 227.269 l
281.721 225.444 l
285.01 224.969 l
288.3 227.078 l
291.59 224.909 l
294.879 225.189 l
298.169 225.077 l
301.458 226.013 l
304.748 225.888 l
308.037 224.459 l
311.327 226.758 l
314.617 228.909 l
317.906 226.885 l
321.196 232.406 l
324.485 225.148 l
327.775 225.708 l
331.064 227.126 l
334.354 225.766 l
337.643 225.02 l
340.933 224.839 l
344.223 225.432 l
347.512 224.745 l
350.802 224.92 l
354.091 224.852 l
357.381 224.66 l
360.67 225.284 l
363.96 225.136 l
367.25 224.504 l
370.539 224.805 l
373.829 224.505 l
377.118 224.879 l
380.408 224.957 l
383.697 226.094 l
386.987 224.4 l
390.277 225.671 l
393.566 225.377 l
396.856 225.572 l
400.145 224.973 l
403.435 225.875 l
406.724 224.408 l
410.014 224.887 l
413.303 224.448 l
416.593 224.528 l
419.883 224.765 l
423.172 224.425 l
426.462 224.729 l
429.751 224.518 l
433.041 224.449 l
436.33 224.726 l
442.91 224.402 l
446.199 224.47 l
449.489 224.777 l
456.068 224.511 l
459.357 224.865 l
462.647 224.545 l
465.936 224.782 l
469.226 224.881 l
472.516 224.578 l
475.805 224.415 l
479.095 224.526 l
482.384 224.428 l
485.674 224.692 l
488.963 224.483 l
492.253 224.4 l
502.122 224.495 l
505.411 224.412 l
515.28 224.451 l
521.859 224.417 l
525.149 224.556 l
528.438 224.483 l
531.728 224.696 l
535.017 224.405 l
538.307 224.408 l
541.596 224.544 l
554.755 224.422 l
567.913 224.421 l
587.65 224.409 l
607.388 224.474 l
613.967 224.404 l
620.546 224.401 l
640.283 224.418 l
673.179 224.402 l
850.815 224.403 l
850.815 224.403 l
stroke
grestore
0.500 setlinewidth
0 setlinecap
0.000 setgray
gsave
/o {
gsave
newpath
translate
0.5 setlinewidth
1 setlinejoin
0 setlinecap
0 0 m
0 4 l
gsave
0.000 setgray
fill
grestore
stroke
grestore
} bind def
189.613 224.4 o
grestore
gsave
/o {
gsave
newpath
translate
0.5 setlinewidth
1 setlinejoin
0 setlinecap
0 0 m
0 -4 l
gsave
0.000 setgray
fill
grestore
stroke
grestore
} bind def
189.613 366.6 o
grestore
gsave
184.128779 212.837500 translate
0.000000 rotate
0.000000 0.140625 m /one glyphshow
6.362305 0.140625 m /zero glyphshow
grestore
gsave
/o {
gsave
newpath
translate
0.5 setlinewidth
1 setlinejoin
0 setlinecap
0 0 m
0 4 l
gsave
0.000 setgray
fill
grestore
stroke
grestore
} bind def
354.091 224.4 o
grestore
gsave
/o {
gsave
newpath
translate
0.5 setlinewidth
1 setlinejoin
0 setlinecap
0 0 m
0 -4 l
gsave
0.000 setgray
fill
grestore
stroke
grestore
} bind def
354.091 366.6 o
grestore
gsave
348.427248 212.837500 translate
0.000000 rotate
0.000000 0.140625 m /two glyphshow
6.362305 0.140625 m /zero glyphshow
grestore
gsave
/o {
gsave
newpath
translate
0.5 setlinewidth
1 setlinejoin
0 setlinecap
0 0 m
0 4 l
gsave
0.000 setgray
fill
grestore
stroke
grestore
} bind def
518.569 224.4 o
grestore
gsave
/o {
gsave
newpath
translate
0.5 setlinewidth
1 setlinejoin
0 setlinecap
0 0 m
0 -4 l
gsave
0.000 setgray
fill
grestore
stroke
grestore
} bind def
518.569 366.6 o
grestore
gsave
512.921030 212.837500 translate
0.000000 rotate
0.000000 0.140625 m /three glyphshow
6.362305 0.140625 m /zero glyphshow
grestore
gsave
/o {
gsave
newpath
translate
0.5 setlinewidth
1 setlinejoin
0 setlinecap
0 0 m
0 4 l
gsave
0.000 setgray
fill
grestore
stroke
grestore
} bind def
683.048 224.4 o
grestore
gsave
/o {
gsave
newpath
translate
0.5 setlinewidth
1 setlinejoin
0 setlinecap
0 0 m
0 -4 l
gsave
0.000 setgray
fill
grestore
stroke
grestore
} bind def
683.048 366.6 o
grestore
gsave
677.258562 212.837500 translate
0.000000 rotate
0.000000 0.140625 m /four glyphshow
6.362305 0.140625 m /zero glyphshow
grestore
gsave
/o {
gsave
newpath
translate
0.5 setlinewidth
1 setlinejoin
0 setlinecap
0 0 m
0 4 l
gsave
0.000 setgray
fill
grestore
stroke
grestore
} bind def
847.526 224.4 o
grestore
gsave
/o {
gsave
newpath
translate
0.5 setlinewidth
1 setlinejoin
0 setlinecap
0 0 m
0 -4 l
gsave
0.000 setgray
fill
grestore
stroke
grestore
} bind def
847.526 366.6 o
grestore
gsave
841.877344 212.837500 translate
0.000000 rotate
0.000000 0.140625 m /five glyphshow
6.362305 0.140625 m /zero glyphshow
grestore
gsave
389.460547 198.165625 translate
0.000000 rotate
0.000000 2.078125 m /F glyphshow
5.001953 2.078125 m /r glyphshow
8.863281 2.078125 m /e glyphshow
15.015625 2.078125 m /q glyphshow
21.363281 2.078125 m /space glyphshow
24.541992 2.078125 m /parenleft glyphshow
28.443359 2.078125 m /H glyphshow
35.962891 2.078125 m /z glyphshow
41.211914 2.078125 m /parenright glyphshow
45.113281 2.078125 m /comma glyphshow
48.291992 2.078125 m /space glyphshow
51.470703 2.078125 m /S glyphshow
57.818359 2.078125 m /m glyphshow
67.559570 2.078125 m /a glyphshow
73.687500 2.078125 m /l glyphshow
76.465820 2.078125 m /l glyphshow
79.244141 2.078125 m /space glyphshow
82.422852 2.078125 m /W glyphshow
91.685547 2.078125 m /o glyphshow
97.803711 2.078125 m /r glyphshow
101.915039 2.078125 m /l glyphshow
104.693359 2.078125 m /d glyphshow
grestore
gsave
/o {
gsave
newpath
translate
0.5 setlinewidth
1 setlinejoin
0 setlinecap
0 0 m
4 0 l
gsave
0.000 setgray
fill
grestore
stroke
grestore
} bind def
41.5828 224.4 o
grestore
gsave
/o {
gsave
newpath
translate
0.5 setlinewidth
1 setlinejoin
0 setlinecap
0 0 m
-4 0 l
gsave
0.000 setgray
fill
grestore
stroke
grestore
} bind def
847.526 224.4 o
grestore
gsave
22.989063 220.618750 translate
0.000000 rotate
0.000000 0.140625 m /zero glyphshow
6.362305 0.140625 m /period glyphshow
9.541016 0.140625 m /zero glyphshow
grestore
gsave
/o {
gsave
newpath
translate
0.5 setlinewidth
1 setlinejoin
0 setlinecap
0 0 m
4 0 l
gsave
0.000 setgray
fill
grestore
stroke
grestore
} bind def
41.5828 252.84 o
grestore
gsave
/o {
gsave
newpath
translate
0.5 setlinewidth
1 setlinejoin
0 setlinecap
0 0 m
-4 0 l
gsave
0.000 setgray
fill
grestore
stroke
grestore
} bind def
847.526 252.84 o
grestore
gsave
23.332813 249.058750 translate
0.000000 rotate
0.000000 0.140625 m /zero glyphshow
6.362305 0.140625 m /period glyphshow
9.541016 0.140625 m /two glyphshow
grestore
gsave
/o {
gsave
newpath
translate
0.5 setlinewidth
1 setlinejoin
0 setlinecap
0 0 m
4 0 l
gsave
0.000 setgray
fill
grestore
stroke
grestore
} bind def
41.5828 281.28 o
grestore
gsave
/o {
gsave
newpath
translate
0.5 setlinewidth
1 setlinejoin
0 setlinecap
0 0 m
-4 0 l
gsave
0.000 setgray
fill
grestore
stroke
grestore
} bind def
847.526 281.28 o
grestore
gsave
22.895313 277.498750 translate
0.000000 rotate
0.000000 0.140625 m /zero glyphshow
6.362305 0.140625 m /period glyphshow
9.541016 0.140625 m /four glyphshow
grestore
gsave
/o {
gsave
newpath
translate
0.5 setlinewidth
1 setlinejoin
0 setlinecap
0 0 m
4 0 l
gsave
0.000 setgray
fill
grestore
stroke
grestore
} bind def
41.5828 309.72 o
grestore
gsave
/o {
gsave
newpath
translate
0.5 setlinewidth
1 setlinejoin
0 setlinecap
0 0 m
-4 0 l
gsave
0.000 setgray
fill
grestore
stroke
grestore
} bind def
847.526 309.72 o
grestore
gsave
22.957813 305.938750 translate
0.000000 rotate
0.000000 0.140625 m /zero glyphshow
6.362305 0.140625 m /period glyphshow
9.541016 0.140625 m /six glyphshow
grestore
gsave
/o {
gsave
newpath
translate
0.5 setlinewidth
1 setlinejoin
0 setlinecap
0 0 m
4 0 l
gsave
0.000 setgray
fill
grestore
stroke
grestore
} bind def
41.5828 338.16 o
grestore
gsave
/o {
gsave
newpath
translate
0.5 setlinewidth
1 setlinejoin
0 setlinecap
0 0 m
-4 0 l
gsave
0.000 setgray
fill
grestore
stroke
grestore
} bind def
847.526 338.16 o
grestore
gsave
23.004688 334.378750 translate
0.000000 rotate
0.000000 0.140625 m /zero glyphshow
6.362305 0.140625 m /period glyphshow
9.541016 0.140625 m /eight glyphshow
grestore
gsave
/o {
gsave
newpath
translate
0.5 setlinewidth
1 setlinejoin
0 setlinecap
0 0 m
4 0 l
gsave
0.000 setgray
fill
grestore
stroke
grestore
} bind def
41.5828 366.6 o
grestore
gsave
/o {
gsave
newpath
translate
0.5 setlinewidth
1 setlinejoin
0 setlinecap
0 0 m
-4 0 l
gsave
0.000 setgray
fill
grestore
stroke
grestore
} bind def
847.526 366.6 o
grestore
gsave
23.426563 362.818750 translate
0.000000 rotate
0.000000 0.140625 m /one glyphshow
6.362305 0.140625 m /period glyphshow
9.541016 0.140625 m /zero glyphshow
grestore
gsave
17.895313 280.875000 translate
90.000000 rotate
0.000000 0.140625 m /P glyphshow
5.655273 0.140625 m /o glyphshow
11.773438 0.140625 m /w glyphshow
19.952148 0.140625 m /e glyphshow
26.104492 0.140625 m /r glyphshow
grestore
gsave
41.582813 369.459375 translate
0.000000 rotate
0.000000 0.140625 m /one glyphshow
6.362305 0.140625 m /e glyphshow
12.514648 0.140625 m /one glyphshow
18.876953 0.140625 m /two glyphshow
grestore
1.000 setlinewidth
2 setlinecap
gsave
41.5828 366.6 m
847.526 366.6 l
stroke
grestore
gsave
847.526 224.4 m
847.526 366.6 l
stroke
grestore
gsave
41.5828 224.4 m
847.526 224.4 l
stroke
grestore
gsave
41.5828 224.4 m
41.5828 366.6 l
stroke
grestore
gsave
41.5828 36 m
847.526 36 l
847.526 178.2 l
41.5828 178.2 l
cl
1.000 setgray
fill
grestore
0.000 0.000 1.000 setrgbcolor
gsave
805.9 142.2 41.58 36 clipbox
38.2932 36.3897 m
48.1619 36.0576 l
51.4515 36.3494 l
54.7411 36.2985 l
58.0306 36.5095 l
61.3202 36.0656 l
64.6098 36.2135 l
67.8993 36.0891 l
71.1889 36.9348 l
74.4784 37.4491 l
77.768 37.7097 l
81.0576 37.0111 l
84.3471 37.4349 l
87.6367 38.7146 l
90.9263 38.9111 l
94.2158 39.6796 l
97.5054 37.1873 l
100.795 39.9862 l
104.085 97.9863 l
107.374 224.95 l
110.664 91.2947 l
113.953 52.1424 l
117.243 54.5439 l
120.532 58.2886 l
123.822 41.4273 l
127.111 38.2589 l
130.401 36.3239 l
133.691 39.6187 l
136.98 36.1143 l
140.27 40.9732 l
143.559 39.6783 l
146.849 37.2414 l
150.138 38.383 l
153.428 43.9046 l
156.718 44.3529 l
160.007 41.8208 l
163.297 40.1066 l
166.586 40.082 l
169.876 40.9334 l
173.165 40.7695 l
176.455 36.4717 l
179.744 53.3843 l
183.034 36.6602 l
186.324 113.995 l
189.613 39.3342 l
192.903 67.9029 l
196.192 70.0838 l
199.482 105.013 l
206.061 45.7953 l
209.351 37.9283 l
212.64 36.7042 l
215.93 40.0812 l
219.219 37.8437 l
222.509 45.4104 l
225.798 45.0151 l
229.088 42.781 l
232.377 39.8605 l
235.667 42.5677 l
238.957 39.838 l
242.246 44.5944 l
245.536 47.6262 l
248.825 38.4825 l
252.115 36.3473 l
255.404 41.0419 l
258.694 42.4067 l
261.984 55.4441 l
265.273 39.4217 l
268.563 52.284 l
271.852 49.9447 l
275.142 42.2477 l
278.431 57.4681 l
281.721 91.0715 l
285.01 52.7345 l
288.3 64.9156 l
291.59 36.1799 l
294.879 38.9502 l
298.169 45.1141 l
301.458 36.9145 l
304.748 39.3015 l
308.037 39.8957 l
311.327 48.3691 l
314.617 37.726 l
317.906 38.0143 l
321.196 38.7976 l
324.485 45.817 l
327.775 53.3942 l
331.064 43.1707 l
334.354 37.3678 l
337.643 36.3108 l
340.933 46.8873 l
344.223 38.4232 l
347.512 42.9579 l
350.802 40.6095 l
354.091 44.8244 l
357.381 50.2782 l
360.67 56.9587 l
363.96 47.8037 l
367.25 37.562 l
370.539 53.197 l
373.829 36.7213 l
377.118 45.8336 l
380.408 37.4738 l
383.697 37.9947 l
386.987 37.265 l
390.277 38.5852 l
393.566 37.1863 l
396.856 49.5235 l
400.145 37.6331 l
403.435 46.0043 l
406.724 40.0495 l
410.014 51.2856 l
413.303 38.2241 l
416.593 37.4027 l
419.883 37.4402 l
423.172 37.0285 l
426.462 36.7733 l
429.751 37.5852 l
433.041 47.2616 l
436.33 39.4379 l
439.62 38.128 l
442.91 50.9253 l
446.199 39.5702 l
449.489 36.9534 l
452.778 36.9979 l
456.068 36.1336 l
459.357 40.9555 l
462.647 39.1154 l
465.936 41.5181 l
469.226 36.8958 l
472.516 37.1077 l
475.805 39.9246 l
479.095 41.2133 l
482.384 39.3173 l
485.674 43.9407 l
488.963 40.1666 l
492.253 39.6744 l
495.543 36.0494 l
498.832 37.0685 l
502.122 36.881 l
505.411 37.2369 l
508.701 36.8299 l
511.99 36.2119 l
515.28 41.0756 l
518.569 37.0084 l
521.859 36.1547 l
528.438 41.9293 l
531.728 36.8185 l
535.017 36.2201 l
538.307 37.0923 l
541.596 36.8307 l
544.886 40.0303 l
548.176 38.1837 l
551.465 36.0364 l
554.755 36.3551 l
558.044 38.932 l
561.334 37.1316 l
567.913 38.6357 l
571.202 38.6359 l
574.492 37.1727 l
577.782 36.4673 l
581.071 36.6154 l
584.361 36.1608 l
587.65 36.896 l
590.94 37.2967 l
594.229 36.1262 l
597.519 36.2486 l
600.809 36.7023 l
604.098 36.0482 l
607.388 38.1096 l
610.677 38.483 l
613.967 36.1601 l
617.256 36.0579 l
620.546 37.4652 l
623.835 36.5036 l
627.125 36.8395 l
630.415 36.2773 l
633.704 36.0561 l
636.994 36.3416 l
640.283 36.0471 l
643.573 38.1867 l
646.862 36.1733 l
653.442 36.547 l
656.731 36.3986 l
660.021 37.5837 l
663.31 36.1689 l
666.6 36.2504 l
673.179 36.5883 l
676.468 36.0079 l
679.758 36.1891 l
683.048 36.0139 l
686.337 36.0864 l
689.627 37.1098 l
692.916 36.1233 l
699.495 36.1558 l
702.785 36.3915 l
706.075 36.0757 l
709.364 36.3972 l
712.654 36.0769 l
719.233 36.0291 l
725.812 36.4032 l
729.102 36.1343 l
732.391 36.011 l
738.97 36.1676 l
742.26 36.7661 l
745.549 36.306 l
748.839 36.0742 l
752.128 36.1831 l
758.708 36.0107 l
798.182 36.0434 l
808.051 36.0054 l
821.209 36.1837 l
824.499 36.0306 l
827.788 36.1661 l
831.078 36.0071 l
850.815 36.0136 l
850.815 36.0136 l
stroke
grestore
0.500 setlinewidth
0 setlinecap
0.000 setgray
gsave
/o {
gsave
newpath
translate
0.5 setlinewidth
1 setlinejoin
0 setlinecap
0 0 m
0 4 l
gsave
0.000 setgray
fill
grestore
stroke
grestore
} bind def
189.613 36 o
grestore
gsave
/o {
gsave
newpath
translate
0.5 setlinewidth
1 setlinejoin
0 setlinecap
0 0 m
0 -4 l
gsave
0.000 setgray
fill
grestore
stroke
grestore
} bind def
189.613 178.2 o
grestore
gsave
184.128779 24.437500 translate
0.000000 rotate
0.000000 0.140625 m /one glyphshow
6.362305 0.140625 m /zero glyphshow
grestore
gsave
/o {
gsave
newpath
translate
0.5 setlinewidth
1 setlinejoin
0 setlinecap
0 0 m
0 4 l
gsave
0.000 setgray
fill
grestore
stroke
grestore
} bind def
354.091 36 o
grestore
gsave
/o {
gsave
newpath
translate
0.5 setlinewidth
1 setlinejoin
0 setlinecap
0 0 m
0 -4 l
gsave
0.000 setgray
fill
grestore
stroke
grestore
} bind def
354.091 178.2 o
grestore
gsave
348.427248 24.437500 translate
0.000000 rotate
0.000000 0.140625 m /two glyphshow
6.362305 0.140625 m /zero glyphshow
grestore
gsave
/o {
gsave
newpath
translate
0.5 setlinewidth
1 setlinejoin
0 setlinecap
0 0 m
0 4 l
gsave
0.000 setgray
fill
grestore
stroke
grestore
} bind def
518.569 36 o
grestore
gsave
/o {
gsave
newpath
translate
0.5 setlinewidth
1 setlinejoin
0 setlinecap
0 0 m
0 -4 l
gsave
0.000 setgray
fill
grestore
stroke
grestore
} bind def
518.569 178.2 o
grestore
gsave
512.921030 24.437500 translate
0.000000 rotate
0.000000 0.140625 m /three glyphshow
6.362305 0.140625 m /zero glyphshow
grestore
gsave
/o {
gsave
newpath
translate
0.5 setlinewidth
1 setlinejoin
0 setlinecap
0 0 m
0 4 l
gsave
0.000 setgray
fill
grestore
stroke
grestore
} bind def
683.048 36 o
grestore
gsave
/o {
gsave
newpath
translate
0.5 setlinewidth
1 setlinejoin
0 setlinecap
0 0 m
0 -4 l
gsave
0.000 setgray
fill
grestore
stroke
grestore
} bind def
683.048 178.2 o
grestore
gsave
677.258562 24.437500 translate
0.000000 rotate
0.000000 0.140625 m /four glyphshow
6.362305 0.140625 m /zero glyphshow
grestore
gsave
/o {
gsave
newpath
translate
0.5 setlinewidth
1 setlinejoin
0 setlinecap
0 0 m
0 4 l
gsave
0.000 setgray
fill
grestore
stroke
grestore
} bind def
847.526 36 o
grestore
gsave
/o {
gsave
newpath
translate
0.5 setlinewidth
1 setlinejoin
0 setlinecap
0 0 m
0 -4 l
gsave
0.000 setgray
fill
grestore
stroke
grestore
} bind def
847.526 178.2 o
grestore
gsave
841.877344 24.437500 translate
0.000000 rotate
0.000000 0.140625 m /five glyphshow
6.362305 0.140625 m /zero glyphshow
grestore
gsave
375.640234 9.765625 translate
0.000000 rotate
0.000000 2.078125 m /F glyphshow
5.001953 2.078125 m /r glyphshow
8.863281 2.078125 m /e glyphshow
15.015625 2.078125 m /q glyphshow
21.363281 2.078125 m /space glyphshow
24.541992 2.078125 m /parenleft glyphshow
28.443359 2.078125 m /H glyphshow
35.962891 2.078125 m /z glyphshow
41.211914 2.078125 m /parenright glyphshow
45.113281 2.078125 m /comma glyphshow
48.291992 2.078125 m /space glyphshow
51.470703 2.078125 m /R glyphshow
58.168945 2.078125 m /a glyphshow
64.296875 2.078125 m /n glyphshow
70.634766 2.078125 m /d glyphshow
76.982422 2.078125 m /o glyphshow
83.100586 2.078125 m /m glyphshow
92.841797 2.078125 m /space glyphshow
96.020508 2.078125 m /N glyphshow
103.500977 2.078125 m /e glyphshow
109.653320 2.078125 m /t glyphshow
113.574219 2.078125 m /w glyphshow
121.752930 2.078125 m /o glyphshow
127.871094 2.078125 m /r glyphshow
131.982422 2.078125 m /k glyphshow
grestore
gsave
/o {
gsave
newpath
translate
0.5 setlinewidth
1 setlinejoin
0 setlinecap
0 0 m
4 0 l
gsave
0.000 setgray
fill
grestore
stroke
grestore
} bind def
41.5828 36 o
grestore
gsave
/o {
gsave
newpath
translate
0.5 setlinewidth
1 setlinejoin
0 setlinecap
0 0 m
-4 0 l
gsave
0.000 setgray
fill
grestore
stroke
grestore
} bind def
847.526 36 o
grestore
gsave
22.989063 32.218750 translate
0.000000 rotate
0.000000 0.140625 m /zero glyphshow
6.362305 0.140625 m /period glyphshow
9.541016 0.140625 m /zero glyphshow
grestore
gsave
/o {
gsave
newpath
translate
0.5 setlinewidth
1 setlinejoin
0 setlinecap
0 0 m
4 0 l
gsave
0.000 setgray
fill
grestore
stroke
grestore
} bind def
41.5828 64.44 o
grestore
gsave
/o {
gsave
newpath
translate
0.5 setlinewidth
1 setlinejoin
0 setlinecap
0 0 m
-4 0 l
gsave
0.000 setgray
fill
grestore
stroke
grestore
} bind def
847.526 64.44 o
grestore
gsave
23.332813 60.658750 translate
0.000000 rotate
0.000000 0.140625 m /zero glyphshow
6.362305 0.140625 m /period glyphshow
9.541016 0.140625 m /two glyphshow
grestore
gsave
/o {
gsave
newpath
translate
0.5 setlinewidth
1 setlinejoin
0 setlinecap
0 0 m
4 0 l
gsave
0.000 setgray
fill
grestore
stroke
grestore
} bind def
41.5828 92.88 o
grestore
gsave
/o {
gsave
newpath
translate
0.5 setlinewidth
1 setlinejoin
0 setlinecap
0 0 m
-4 0 l
gsave
0.000 setgray
fill
grestore
stroke
grestore
} bind def
847.526 92.88 o
grestore
gsave
22.895313 89.098750 translate
0.000000 rotate
0.000000 0.140625 m /zero glyphshow
6.362305 0.140625 m /period glyphshow
9.541016 0.140625 m /four glyphshow
grestore
gsave
/o {
gsave
newpath
translate
0.5 setlinewidth
1 setlinejoin
0 setlinecap
0 0 m
4 0 l
gsave
0.000 setgray
fill
grestore
stroke
grestore
} bind def
41.5828 121.32 o
grestore
gsave
/o {
gsave
newpath
translate
0.5 setlinewidth
1 setlinejoin
0 setlinecap
0 0 m
-4 0 l
gsave
0.000 setgray
fill
grestore
stroke
grestore
} bind def
847.526 121.32 o
grestore
gsave
22.957813 117.538750 translate
0.000000 rotate
0.000000 0.140625 m /zero glyphshow
6.362305 0.140625 m /period glyphshow
9.541016 0.140625 m /six glyphshow
grestore
gsave
/o {
gsave
newpath
translate
0.5 setlinewidth
1 setlinejoin
0 setlinecap
0 0 m
4 0 l
gsave
0.000 setgray
fill
grestore
stroke
grestore
} bind def
41.5828 149.76 o
grestore
gsave
/o {
gsave
newpath
translate
0.5 setlinewidth
1 setlinejoin
0 setlinecap
0 0 m
-4 0 l
gsave
0.000 setgray
fill
grestore
stroke
grestore
} bind def
847.526 149.76 o
grestore
gsave
23.004688 145.978750 translate
0.000000 rotate
0.000000 0.140625 m /zero glyphshow
6.362305 0.140625 m /period glyphshow
9.541016 0.140625 m /eight glyphshow
grestore
gsave
/o {
gsave
newpath
translate
0.5 setlinewidth
1 setlinejoin
0 setlinecap
0 0 m
4 0 l
gsave
0.000 setgray
fill
grestore
stroke
grestore
} bind def
41.5828 178.2 o
grestore
gsave
/o {
gsave
newpath
translate
0.5 setlinewidth
1 setlinejoin
0 setlinecap
0 0 m
-4 0 l
gsave
0.000 setgray
fill
grestore
stroke
grestore
} bind def
847.526 178.2 o
grestore
gsave
23.426563 174.418750 translate
0.000000 rotate
0.000000 0.140625 m /one glyphshow
6.362305 0.140625 m /period glyphshow
9.541016 0.140625 m /zero glyphshow
grestore
gsave
17.895313 92.475000 translate
90.000000 rotate
0.000000 0.140625 m /P glyphshow
5.655273 0.140625 m /o glyphshow
11.773438 0.140625 m /w glyphshow
19.952148 0.140625 m /e glyphshow
26.104492 0.140625 m /r glyphshow
grestore
gsave
41.582813 181.059375 translate
0.000000 rotate
0.000000 0.140625 m /one glyphshow
6.362305 0.140625 m /e glyphshow
12.514648 0.140625 m /one glyphshow
18.876953 0.140625 m /two glyphshow
grestore
1.000 setlinewidth
2 setlinecap
gsave
41.5828 178.2 m
847.526 178.2 l
stroke
grestore
gsave
847.526 36 m
847.526 178.2 l
stroke
grestore
gsave
41.5828 36 m
847.526 36 l
stroke
grestore
gsave
41.5828 36 m
41.5828 178.2 l
stroke
grestore

end
showpage
