%!PS-Adobe-3.0 EPSF-3.0
%%Title: ../figures/fig8-SCLplot-delay.eps
%%Creator: matplotlib version 1.2.1, http://matplotlib.org/
%%CreationDate: Tue Sep 17 22:46:40 2013
%%Orientation: portrait
%%BoundingBox: -126 180 738 612
%%EndComments
%%BeginProlog
/mpldict 10 dict def
mpldict begin
/m { moveto } bind def
/l { lineto } bind def
/r { rlineto } bind def
/c { curveto } bind def
/cl { closepath } bind def
/box {
m
1 index 0 r
0 exch r
neg 0 r
cl
} bind def
/clipbox {
box
clip
newpath
} bind def
%!PS-Adobe-3.0 Resource-Font
%%Title: cmr10
%%Copyright: Copyright (C) 1994, Basil K. Malyshev. All Rights Reserved.012BaKoMa Fonts Collection, Level-B.
%%Creator: Converted from TrueType to type 3 by PPR
25 dict begin
/_d{bind def}bind def
/_m{moveto}_d
/_l{lineto}_d
/_cl{closepath eofill}_d
/_c{curveto}_d
/_sc{7 -1 roll{setcachedevice}{pop pop pop pop pop pop}ifelse}_d
/_e{exec}_d
/FontName /Cmr10 def
/PaintType 0 def
/FontMatrix[.001 0 0 .001 0 0]def
/FontBBox[-44 -250 1009 750]def
/FontType 3 def
/Encoding [ /parenright /parenleft ] def
/FontInfo 10 dict dup begin
/FamilyName (cmr10) def
/FullName (cmr10) def
/Notice (Copyright (C) 1994, Basil K. Malyshev. All Rights Reserved.012BaKoMa Fonts Collection, Level-B. ) def
/Weight (Regular) def
/Version (1.1/12-Nov-94) def
/ItalicAngle 0.0 def
/isFixedPitch false def
/UnderlinePosition -133 def
/UnderlineThickness 20 def
end readonly def
/CharStrings 2 dict dup begin
/parenright{{388 0 56 -249 291 750 _sc
65 -249 _m
59 -249 56 -246 56 -240 _c
56 -237 56 -235 58 -234 _c
172 -122 229 38 229 250 _c
229 462 172 623 60 733 _c
57 734 56 737 56 741 _c
56 743 57 745 59 747 _c
61 749 63 750 65 750 _c
74 750 _l
76 750 77 749 79 748 _c
127 710 167 664 199 610 _c
231 556 254 498 269 437 _c
283 376 291 314 291 250 _c
291 202 287 156 279 110 _c
}_e{271 64 258 20 241 -24 _c
223 -68 201 -108 175 -146 _c
148 -184 116 -217 79 -247 _c
77 -248 76 -249 74 -249 _c
65 -249 _l
_cl}_e}_d
/parenleft{{388 0 97 -249 332 750 _sc
310 -247 _m
272 -217 240 -184 214 -146 _c
187 -108 165 -67 148 -25 _c
131 17 118 62 110 109 _c
101 155 97 202 97 250 _c
97 298 101 345 110 392 _c
118 438 131 483 149 527 _c
166 570 188 611 215 649 _c
242 687 274 720 310 748 _c
310 749 311 750 315 750 _c
324 750 _l
326 750 327 749 329 747 _c
331 745 332 743 332 741 _c
332 738 331 736 330 735 _c
}_e{297 703 270 668 248 632 _c
226 596 209 557 196 516 _c
183 474 174 432 168 388 _c
162 344 159 298 159 250 _c
159 38 215 -122 329 -232 _c
331 -234 332 -236 332 -240 _c
332 -242 331 -244 329 -246 _c
327 -248 326 -249 324 -249 _c
315 -249 _l
311 -249 310 -248 310 -247 _c
_cl}_e}_d
end readonly def

/BuildGlyph
 {exch begin
 CharStrings exch
 2 copy known not{pop /.notdef}if
 true 3 1 roll get exec
 end}_d

/BuildChar {
 1 index /Encoding get exch get
 1 index /BuildGlyph get exec
}_d

FontName currentdict end definefont pop
%!PS-Adobe-3.0 Resource-Font
%%Title: DejaVu Sans
%%Copyright: Copyright (c) 2003 by Bitstream, Inc. All Rights Reserved. Copyright (c) 2006 by Tavmjong Bah. All Rights Reserved. DejaVu changes are in public domain 
%%Creator: Converted from TrueType to type 3 by PPR
25 dict begin
/_d{bind def}bind def
/_m{moveto}_d
/_l{lineto}_d
/_cl{closepath eofill}_d
/_c{curveto}_d
/_sc{7 -1 roll{setcachedevice}{pop pop pop pop pop pop}ifelse}_d
/_e{exec}_d
/FontName /DejaVuSans def
/PaintType 0 def
/FontMatrix[.001 0 0 .001 0 0]def
/FontBBox[-1021 -415 1681 1167]def
/FontType 3 def
/Encoding [ /space /period /zero /one /two /four /six /eight /a /d /e /i /l /m /n /o /r /t /z ] def
/FontInfo 10 dict dup begin
/FamilyName (DejaVu Sans) def
/FullName (DejaVu Sans) def
/Notice (Copyright (c) 2003 by Bitstream, Inc. All Rights Reserved. Copyright (c) 2006 by Tavmjong Bah. All Rights Reserved. DejaVu changes are in public domain ) def
/Weight (Book) def
/Version (Version 2.33) def
/ItalicAngle 0.0 def
/isFixedPitch false def
/UnderlinePosition -130 def
/UnderlineThickness 90 def
end readonly def
/CharStrings 19 dict dup begin
/space{318 0 0 0 0 0 _sc
}_d
/period{318 0 107 0 210 124 _sc
107 124 _m
210 124 _l
210 0 _l
107 0 _l
107 124 _l
_cl}_d
/zero{636 0 66 -13 570 742 _sc
318 664 _m
267 664 229 639 203 589 _c
177 539 165 464 165 364 _c
165 264 177 189 203 139 _c
229 89 267 64 318 64 _c
369 64 407 89 433 139 _c
458 189 471 264 471 364 _c
471 464 458 539 433 589 _c
407 639 369 664 318 664 _c
318 742 _m
399 742 461 709 505 645 _c
548 580 570 486 570 364 _c
570 241 548 147 505 83 _c
461 19 399 -13 318 -13 _c
236 -13 173 19 130 83 _c
87 147 66 241 66 364 _c
66 486 87 580 130 645 _c
173 709 236 742 318 742 _c
_cl}_d
/one{636 0 110 0 544 729 _sc
124 83 _m
285 83 _l
285 639 _l
110 604 _l
110 694 _l
284 729 _l
383 729 _l
383 83 _l
544 83 _l
544 0 _l
124 0 _l
124 83 _l
_cl}_d
/two{{636 0 73 0 536 742 _sc
192 83 _m
536 83 _l
536 0 _l
73 0 _l
73 83 _l
110 121 161 173 226 239 _c
290 304 331 346 348 365 _c
380 400 402 430 414 455 _c
426 479 433 504 433 528 _c
433 566 419 598 392 622 _c
365 646 330 659 286 659 _c
255 659 222 653 188 643 _c
154 632 117 616 78 594 _c
78 694 _l
118 710 155 722 189 730 _c
223 738 255 742 284 742 _c
}_e{359 742 419 723 464 685 _c
509 647 532 597 532 534 _c
532 504 526 475 515 449 _c
504 422 484 390 454 354 _c
446 344 420 317 376 272 _c
332 227 271 164 192 83 _c
_cl}_e}_d
/four{636 0 49 0 580 729 _sc
378 643 _m
129 254 _l
378 254 _l
378 643 _l
352 729 _m
476 729 _l
476 254 _l
580 254 _l
580 172 _l
476 172 _l
476 0 _l
378 0 _l
378 172 _l
49 172 _l
49 267 _l
352 729 _l
_cl}_d
/six{{636 0 70 -13 573 742 _sc
330 404 _m
286 404 251 388 225 358 _c
199 328 186 286 186 234 _c
186 181 199 139 225 109 _c
251 79 286 64 330 64 _c
374 64 409 79 435 109 _c
461 139 474 181 474 234 _c
474 286 461 328 435 358 _c
409 388 374 404 330 404 _c
526 713 _m
526 623 _l
501 635 476 644 451 650 _c
425 656 400 659 376 659 _c
310 659 260 637 226 593 _c
}_e{192 549 172 482 168 394 _c
187 422 211 444 240 459 _c
269 474 301 482 336 482 _c
409 482 467 459 509 415 _c
551 371 573 310 573 234 _c
573 159 550 99 506 54 _c
462 9 403 -13 330 -13 _c
246 -13 181 19 137 83 _c
92 147 70 241 70 364 _c
70 479 97 571 152 639 _c
206 707 280 742 372 742 _c
396 742 421 739 447 735 _c
472 730 498 723 526 713 _c
_cl}_e}_d
/eight{{636 0 68 -13 568 742 _sc
318 346 _m
271 346 234 333 207 308 _c
180 283 167 249 167 205 _c
167 161 180 126 207 101 _c
234 76 271 64 318 64 _c
364 64 401 76 428 102 _c
455 127 469 161 469 205 _c
469 249 455 283 429 308 _c
402 333 365 346 318 346 _c
219 388 _m
177 398 144 418 120 447 _c
96 476 85 511 85 553 _c
85 611 105 657 147 691 _c
188 725 245 742 318 742 _c
}_e{390 742 447 725 489 691 _c
530 657 551 611 551 553 _c
551 511 539 476 515 447 _c
491 418 459 398 417 388 _c
464 377 501 355 528 323 _c
554 291 568 251 568 205 _c
568 134 546 80 503 43 _c
459 5 398 -13 318 -13 _c
237 -13 175 5 132 43 _c
89 80 68 134 68 205 _c
68 251 81 291 108 323 _c
134 355 171 377 219 388 _c
183 544 _m
183 506 194 476 218 455 _c
}_e{242 434 275 424 318 424 _c
360 424 393 434 417 455 _c
441 476 453 506 453 544 _c
453 582 441 611 417 632 _c
393 653 360 664 318 664 _c
275 664 242 653 218 632 _c
194 611 183 582 183 544 _c
_cl}_e}_d
/a{{613 0 60 -13 522 560 _sc
343 275 _m
270 275 220 266 192 250 _c
164 233 150 205 150 165 _c
150 133 160 107 181 89 _c
202 70 231 61 267 61 _c
317 61 357 78 387 114 _c
417 149 432 196 432 255 _c
432 275 _l
343 275 _l
522 312 _m
522 0 _l
432 0 _l
432 83 _l
411 49 385 25 355 10 _c
325 -5 287 -13 243 -13 _c
187 -13 142 2 109 33 _c
76 64 60 106 60 159 _c
}_e{60 220 80 266 122 298 _c
163 329 224 345 306 345 _c
432 345 _l
432 354 _l
432 395 418 427 391 450 _c
364 472 326 484 277 484 _c
245 484 215 480 185 472 _c
155 464 127 453 100 439 _c
100 522 _l
132 534 164 544 195 550 _c
226 556 256 560 286 560 _c
365 560 424 539 463 498 _c
502 457 522 395 522 312 _c
_cl}_e}_d
/d{{635 0 55 -13 544 760 _sc
454 464 _m
454 760 _l
544 760 _l
544 0 _l
454 0 _l
454 82 _l
435 49 411 25 382 10 _c
353 -5 319 -13 279 -13 _c
213 -13 159 13 117 65 _c
75 117 55 187 55 273 _c
55 359 75 428 117 481 _c
159 533 213 560 279 560 _c
319 560 353 552 382 536 _c
411 520 435 496 454 464 _c
148 273 _m
148 207 161 155 188 117 _c
215 79 253 61 301 61 _c
}_e{348 61 385 79 413 117 _c
440 155 454 207 454 273 _c
454 339 440 390 413 428 _c
385 466 348 485 301 485 _c
253 485 215 466 188 428 _c
161 390 148 339 148 273 _c
_cl}_e}_d
/e{{615 0 55 -13 562 560 _sc
562 296 _m
562 252 _l
149 252 _l
153 190 171 142 205 110 _c
238 78 284 62 344 62 _c
378 62 412 66 444 74 _c
476 82 509 95 541 113 _c
541 28 _l
509 14 476 3 442 -3 _c
408 -9 373 -13 339 -13 _c
251 -13 182 12 131 62 _c
80 112 55 181 55 268 _c
55 357 79 428 127 481 _c
175 533 241 560 323 560 _c
397 560 455 536 498 489 _c
}_e{540 441 562 377 562 296 _c
472 322 _m
471 371 457 410 431 440 _c
404 469 368 484 324 484 _c
274 484 234 469 204 441 _c
174 413 156 373 152 322 _c
472 322 _l
_cl}_e}_d
/i{278 0 94 0 184 760 _sc
94 547 _m
184 547 _l
184 0 _l
94 0 _l
94 547 _l
94 760 _m
184 760 _l
184 646 _l
94 646 _l
94 760 _l
_cl}_d
/l{278 0 94 0 184 760 _sc
94 760 _m
184 760 _l
184 0 _l
94 0 _l
94 760 _l
_cl}_d
/m{{974 0 91 0 889 560 _sc
520 442 _m
542 482 569 511 600 531 _c
631 550 668 560 711 560 _c
767 560 811 540 842 500 _c
873 460 889 403 889 330 _c
889 0 _l
799 0 _l
799 327 _l
799 379 789 418 771 444 _c
752 469 724 482 686 482 _c
639 482 602 466 575 435 _c
548 404 535 362 535 309 _c
535 0 _l
445 0 _l
445 327 _l
445 379 435 418 417 444 _c
398 469 369 482 331 482 _c
}_e{285 482 248 466 221 435 _c
194 404 181 362 181 309 _c
181 0 _l
91 0 _l
91 547 _l
181 547 _l
181 462 _l
201 495 226 520 255 536 _c
283 552 317 560 357 560 _c
397 560 430 550 458 530 _c
486 510 506 480 520 442 _c
_cl}_e}_d
/n{634 0 91 0 549 560 _sc
549 330 _m
549 0 _l
459 0 _l
459 327 _l
459 379 448 417 428 443 _c
408 469 378 482 338 482 _c
289 482 251 466 223 435 _c
195 404 181 362 181 309 _c
181 0 _l
91 0 _l
91 547 _l
181 547 _l
181 462 _l
202 494 227 519 257 535 _c
286 551 320 560 358 560 _c
420 560 468 540 500 501 _c
532 462 549 405 549 330 _c
_cl}_d
/o{612 0 55 -13 557 560 _sc
306 484 _m
258 484 220 465 192 427 _c
164 389 150 338 150 273 _c
150 207 163 156 191 118 _c
219 80 257 62 306 62 _c
354 62 392 80 420 118 _c
448 156 462 207 462 273 _c
462 337 448 389 420 427 _c
392 465 354 484 306 484 _c
306 560 _m
384 560 445 534 490 484 _c
534 433 557 363 557 273 _c
557 183 534 113 490 63 _c
445 12 384 -13 306 -13 _c
227 -13 165 12 121 63 _c
77 113 55 183 55 273 _c
55 363 77 433 121 484 _c
165 534 227 560 306 560 _c
_cl}_d
/r{411 0 91 0 411 560 _sc
411 463 _m
401 469 390 473 378 476 _c
366 478 353 480 339 480 _c
288 480 249 463 222 430 _c
194 397 181 350 181 288 _c
181 0 _l
91 0 _l
91 547 _l
181 547 _l
181 462 _l
199 495 224 520 254 536 _c
284 552 321 560 365 560 _c
371 560 378 559 386 559 _c
393 558 401 557 411 555 _c
411 463 _l
_cl}_d
/t{392 0 27 0 368 702 _sc
183 702 _m
183 547 _l
368 547 _l
368 477 _l
183 477 _l
183 180 _l
183 135 189 106 201 94 _c
213 81 238 75 276 75 _c
368 75 _l
368 0 _l
276 0 _l
206 0 158 13 132 39 _c
106 65 93 112 93 180 _c
93 477 _l
27 477 _l
27 547 _l
93 547 _l
93 702 _l
183 702 _l
_cl}_d
/z{525 0 43 0 482 547 _sc
55 547 _m
482 547 _l
482 465 _l
144 72 _l
482 72 _l
482 0 _l
43 0 _l
43 82 _l
381 475 _l
55 475 _l
55 547 _l
_cl}_d
end readonly def

/BuildGlyph
 {exch begin
 CharStrings exch
 2 copy known not{pop /.notdef}if
 true 3 1 roll get exec
 end}_d

/BuildChar {
 1 index /Encoding get exch get
 1 index /BuildGlyph get exec
}_d

FontName currentdict end definefont pop
%!PS-Adobe-3.0 Resource-Font
%%Title: cmmi10
%%Copyright: Copyright (C) 1994, Basil K. Malyshev. All Rights Reserved.012BaKoMa Fonts Collection, Level-B.
%%Creator: Converted from TrueType to type 3 by PPR
25 dict begin
/_d{bind def}bind def
/_m{moveto}_d
/_l{lineto}_d
/_cl{closepath eofill}_d
/_c{curveto}_d
/_sc{7 -1 roll{setcachedevice}{pop pop pop pop pop pop}ifelse}_d
/_e{exec}_d
/FontName /Cmmi10 def
/PaintType 0 def
/FontMatrix[.001 0 0 .001 0 0]def
/FontBBox[-34 -250 1048 750]def
/FontType 3 def
/Encoding [ /x /S /m /slash /a /p ] def
/FontInfo 10 dict dup begin
/FamilyName (cmmi10) def
/FullName (cmmi10) def
/Notice (Copyright (C) 1994, Basil K. Malyshev. All Rights Reserved.012BaKoMa Fonts Collection, Level-B. ) def
/Weight (Regular) def
/Version (1.1/12-Nov-94) def
/ItalicAngle 0.0 def
/isFixedPitch false def
/UnderlinePosition -133 def
/UnderlineThickness 20 def
end readonly def
/CharStrings 6 dict dup begin
/x{{571 0 31 -10 526 442 _sc
78 29 _m
90 19 106 15 128 15 _c
148 15 167 25 183 45 _c
199 65 210 87 216 111 _c
261 288 _l
268 320 272 342 272 354 _c
272 370 267 385 258 397 _c
248 409 235 416 219 416 _c
198 416 178 409 160 396 _c
141 382 125 365 113 345 _c
100 325 91 304 86 284 _c
84 280 82 278 78 278 _c
66 278 _l
60 278 58 281 58 287 _c
58 290 _l
}_e{64 314 75 338 91 362 _c
107 386 126 405 149 420 _c
171 434 195 442 221 442 _c
245 442 267 435 287 422 _c
307 409 321 391 329 369 _c
340 389 354 407 372 421 _c
390 435 409 442 431 442 _c
445 442 460 439 475 434 _c
490 429 502 421 512 411 _c
521 401 526 388 526 372 _c
526 355 520 340 509 328 _c
498 316 484 310 468 310 _c
457 310 448 313 441 320 _c
}_e{433 327 430 336 430 346 _c
430 360 434 372 444 383 _c
454 393 465 400 479 402 _c
467 411 450 416 429 416 _c
407 416 389 406 373 386 _c
357 366 346 344 340 320 _c
296 143 _l
288 116 285 94 285 77 _c
285 60 289 45 299 33 _c
309 21 322 15 338 15 _c
369 15 397 28 421 56 _c
445 84 462 114 470 147 _c
471 151 474 153 478 153 _c
490 153 _l
492 153 494 152 496 150 _c
}_e{498 148 499 146 499 144 _c
499 143 498 142 498 141 _c
488 101 468 66 438 36 _c
408 5 374 -10 336 -10 _c
311 -10 289 -3 269 9 _c
249 21 236 39 228 62 _c
217 42 202 25 184 11 _c
166 -3 146 -10 126 -10 _c
111 -10 96 -7 81 -3 _c
66 1 54 9 45 19 _c
35 29 31 43 31 59 _c
31 75 36 89 47 102 _c
57 114 71 121 88 121 _c
}_e{98 121 107 117 115 111 _c
123 104 127 95 127 85 _c
127 71 122 58 113 48 _c
103 38 92 31 78 29 _c
_cl}_e}_d
/S{{613 0 53 -21 646 705 _sc
61 -21 _m
59 -21 57 -19 55 -17 _c
53 -15 53 -13 53 -11 _c
111 221 _l
112 225 115 227 119 227 _c
131 227 _l
133 227 135 226 137 224 _c
138 222 139 219 139 217 _c
133 194 131 174 131 156 _c
131 107 147 71 180 48 _c
213 24 255 13 306 13 _c
328 13 349 18 370 29 _c
391 39 410 53 426 71 _c
442 88 454 107 464 129 _c
}_e{473 150 478 172 478 194 _c
478 217 471 238 459 256 _c
447 274 430 286 408 292 _c
286 324 _l
253 332 227 350 207 377 _c
187 403 178 433 178 467 _c
178 507 190 545 214 582 _c
238 619 269 649 307 671 _c
345 693 384 705 424 705 _c
454 705 482 699 508 688 _c
533 676 553 659 567 635 _c
624 702 _l
628 704 630 705 631 705 _c
637 705 _l
639 705 641 703 643 701 _c
}_e{645 699 646 697 646 695 _c
588 463 _l
586 458 584 456 580 456 _c
568 456 _l
562 456 559 459 559 467 _c
562 488 564 506 564 522 _c
564 552 558 579 548 602 _c
537 625 521 643 500 655 _c
478 667 452 673 421 673 _c
394 673 367 665 341 650 _c
315 634 293 614 277 589 _c
261 563 253 537 253 510 _c
253 488 259 469 272 453 _c
284 436 301 425 322 419 _c
444 387 _l
}_e{466 381 485 370 501 356 _c
517 341 530 323 539 303 _c
547 283 552 261 552 237 _c
552 205 545 173 532 143 _c
518 112 500 84 476 59 _c
452 33 424 14 394 0 _c
364 -14 333 -21 302 -21 _c
222 -21 165 2 131 48 _c
75 -18 _l
71 -20 68 -21 68 -21 _c
61 -21 _l
_cl}_e}_d
/m{{878 0 27 -10 851 442 _sc
77 17 _m
77 21 77 24 78 26 _c
153 324 _l
157 342 160 359 160 373 _c
160 401 150 416 131 416 _c
110 416 94 403 84 378 _c
74 353 64 322 55 284 _c
55 282 54 280 52 279 _c
50 278 48 278 47 278 _c
35 278 _l
33 278 31 279 29 281 _c
27 283 27 286 27 288 _c
34 317 41 342 48 362 _c
54 382 65 400 79 417 _c
}_e{93 433 110 442 132 442 _c
156 442 178 434 198 418 _c
217 402 227 382 227 358 _c
247 384 270 404 297 419 _c
323 434 352 442 382 442 _c
413 442 440 434 463 418 _c
486 402 498 379 498 349 _c
518 378 542 401 570 417 _c
597 433 627 442 660 442 _c
694 442 722 432 743 414 _c
764 395 775 368 775 334 _c
775 306 768 273 756 235 _c
744 196 729 153 711 105 _c
}_e{701 81 697 61 697 45 _c
697 25 704 15 720 15 _c
746 15 767 29 785 57 _c
802 85 814 115 822 147 _c
824 151 826 153 830 153 _c
842 153 _l
844 153 846 152 848 150 _c
850 148 851 146 851 144 _c
851 143 850 142 850 141 _c
840 103 824 68 802 37 _c
780 5 752 -10 718 -10 _c
694 -10 674 -2 658 13 _c
641 29 633 48 633 72 _c
633 83 635 96 641 111 _c
}_e{659 161 675 205 688 245 _c
700 284 707 319 707 349 _c
707 367 703 383 696 396 _c
688 409 676 416 658 416 _c
622 416 590 404 563 382 _c
536 360 513 330 494 294 _c
492 287 491 282 491 279 _c
427 22 _l
424 12 419 5 411 -1 _c
403 -7 394 -10 385 -10 _c
377 -10 370 -7 364 -3 _c
358 1 355 8 355 17 _c
355 21 355 24 356 26 _c
420 281 _l
426 308 430 331 430 349 _c
}_e{430 367 426 383 418 396 _c
410 409 398 416 380 416 _c
355 416 332 410 312 400 _c
292 389 274 375 259 357 _c
243 339 229 318 217 294 _c
149 22 _l
147 12 142 5 134 -1 _c
126 -7 117 -10 107 -10 _c
99 -10 92 -7 86 -3 _c
80 1 77 8 77 17 _c
_cl}_e}_d
/slash{500 0 56 -249 443 750 _sc
56 -229 _m
56 -227 56 -225 57 -225 _c
405 738 _l
406 742 408 745 412 747 _c
415 749 419 750 423 750 _c
429 750 433 748 437 744 _c
441 740 443 736 443 730 _c
443 726 _l
95 -237 _l
91 -245 84 -249 76 -249 _c
70 -249 66 -247 62 -243 _c
58 -239 56 -234 56 -229 _c
_cl}_d
/a{{528 0 38 -10 501 442 _sc
174 -10 _m
132 -10 98 5 74 37 _c
50 68 38 105 38 149 _c
38 191 49 236 71 282 _c
93 328 122 366 160 396 _c
198 426 238 442 282 442 _c
302 442 319 436 335 426 _c
351 415 363 400 372 382 _c
379 408 394 422 416 422 _c
424 422 431 419 437 414 _c
443 409 446 402 446 394 _c
446 392 445 390 445 389 _c
445 388 445 387 445 386 _c
375 107 _l
}_e{370 87 368 70 368 58 _c
368 29 377 15 397 15 _c
417 15 433 28 444 55 _c
455 81 464 112 472 147 _c
473 151 476 153 480 153 _c
492 153 _l
494 153 496 151 498 149 _c
500 147 501 145 501 143 _c
489 96 476 59 462 31 _c
448 3 426 -10 395 -10 _c
372 -10 352 -3 335 9 _c
318 21 307 39 303 61 _c
260 13 217 -10 174 -10 _c
175 15 _m
199 15 222 24 245 42 _c
}_e{267 60 287 81 303 106 _c
303 106 304 107 304 109 _c
358 326 _l
359 329 _l
355 353 346 373 333 390 _c
319 407 302 416 280 416 _c
257 416 236 406 217 388 _c
197 370 181 348 168 323 _c
154 296 142 259 130 213 _c
118 167 113 131 113 105 _c
113 81 118 60 128 42 _c
138 24 153 15 175 15 _c
_cl}_e}_d
/p{{503 0 -33 -193 491 442 _sc
-24 -193 _m
-30 -193 -33 -188 -33 -180 _c
-31 -165 -26 -158 -20 -158 _c
0 -158 14 -156 22 -152 _c
30 -148 37 -139 42 -124 _c
155 325 _l
159 337 162 353 162 373 _c
162 401 152 416 133 416 _c
112 416 96 403 86 378 _c
76 353 66 322 57 284 _c
57 280 54 278 49 278 _c
37 278 _l
35 278 34 279 32 281 _c
30 283 29 286 29 288 _c
}_e{36 317 43 342 50 362 _c
56 382 67 400 81 417 _c
95 433 112 442 134 442 _c
156 442 176 435 194 422 _c
211 409 222 392 227 370 _c
245 391 265 408 287 422 _c
309 435 332 442 356 442 _c
384 442 408 434 429 419 _c
449 404 465 384 475 360 _c
485 336 491 310 491 282 _c
491 239 480 195 458 149 _c
436 103 406 65 369 35 _c
331 5 291 -10 248 -10 _c
}_e{228 -10 211 -4 195 6 _c
179 16 166 31 158 49 _c
113 -128 _l
111 -138 110 -143 110 -145 _c
110 -153 132 -158 176 -158 _c
182 -158 186 -162 186 -171 _c
184 -179 182 -185 180 -188 _c
178 -191 175 -193 169 -193 _c
-24 -193 _l
249 15 _m
272 15 293 24 313 43 _c
333 62 349 84 362 108 _c
370 126 379 147 387 173 _c
395 199 402 226 408 256 _c
414 285 417 308 417 326 _c
}_e{417 341 415 355 411 369 _c
407 382 400 393 391 402 _c
381 411 369 416 354 416 _c
329 416 306 407 284 390 _c
262 372 243 351 226 325 _c
226 322 _l
171 101 _l
175 77 184 56 197 40 _c
210 23 227 15 249 15 _c
_cl}_e}_d
end readonly def

/BuildGlyph
 {exch begin
 CharStrings exch
 2 copy known not{pop /.notdef}if
 true 3 1 roll get exec
 end}_d

/BuildChar {
 1 index /Encoding get exch get
 1 index /BuildGlyph get exec
}_d

FontName currentdict end definefont pop
end
%%EndProlog
mpldict begin
-126 180 translate
864 432 0 0 clipbox
gsave
0 0 m
864 0 l
864 432 l
0 432 l
cl
1.000 setgray
fill
grestore
gsave
108 54 m
777.6 54 l
777.6 388.8 l
108 388.8 l
cl
0.933 setgray
fill
grestore
0.500 setlinewidth
0 setlinejoin
0 setlinecap
[] 0 setdash
0.000 setgray
gsave
669.6 334.8 108 54 clipbox
/o {
gsave
newpath
translate
0.5 setlinewidth
0 setlinejoin
0 setlinecap
0 3 m
-3 -3 l
3 -3 l
cl
gsave
0.000 0.500 0.000 setrgbcolor
fill
grestore
stroke
grestore
} bind def
108 75.2903 o
114.728 75.073 o
121.456 75.8746 o
128.184 74.0012 o
134.912 75.1633 o
141.64 75.8776 o
148.368 76.7615 o
155.096 76.7054 o
161.824 76.092 o
168.552 75.5815 o
175.28 75.8997 o
182.008 75.7963 o
188.736 76.5666 o
195.464 78.2833 o
202.192 76.8008 o
208.92 76.9788 o
215.648 78.8074 o
222.376 77.2296 o
229.104 78.9454 o
235.832 79.9303 o
242.56 80.6468 o
249.288 79.1366 o
256.016 81.4374 o
262.744 80.0649 o
269.472 81.6266 o
276.2 83.0087 o
282.928 82.8359 o
289.656 82.8919 o
296.384 81.8945 o
303.112 84.6652 o
309.84 86.8967 o
316.568 85.709 o
323.296 87.1286 o
330.024 86.3966 o
336.752 92.3889 o
343.48 96.2457 o
350.208 97.0754 o
356.936 94.6728 o
363.664 96.3987 o
370.392 102.746 o
377.12 100.568 o
383.848 107.072 o
390.576 107.895 o
397.304 109.25 o
404.032 117.52 o
410.76 121.732 o
417.488 120.652 o
424.216 127.23 o
430.944 135.285 o
437.672 134.062 o
444.4 143.02 o
451.128 146.21 o
457.856 157.993 o
464.584 169.918 o
471.312 188.938 o
478.04 192.942 o
484.768 216.265 o
491.496 222.528 o
498.224 234.791 o
504.952 245.893 o
511.68 279.193 o
518.408 303.189 o
525.136 315.789 o
531.864 331.292 o
538.592 326.827 o
545.32 346.322 o
552.048 359.276 o
558.776 351.031 o
565.504 352.828 o
572.232 365.777 o
578.96 356.481 o
585.688 370.9 o
592.416 382.235 o
599.144 364.219 o
605.872 340.95 o
612.6 352.002 o
619.328 358.488 o
626.056 361.159 o
632.784 348.068 o
639.512 357.823 o
646.24 357.254 o
652.968 338.554 o
659.696 338.432 o
666.424 314.085 o
673.152 317.457 o
679.88 308.619 o
686.608 287.865 o
693.336 281.568 o
700.064 269.859 o
706.792 243.781 o
713.52 222.704 o
720.248 190.14 o
726.976 162.058 o
733.704 146.587 o
740.432 155.934 o
747.16 173.81 o
753.888 153.753 o
760.616 127.32 o
767.344 98.3137 o
774.072 78.9018 o
grestore
1 setlinejoin
[1 3] 0 setdash
gsave
669.6 334.8 108 54 clipbox
108 54 m
108 388.8 l
stroke
grestore
[] 0 setdash
gsave
/o {
gsave
newpath
translate
0.5 setlinewidth
1 setlinejoin
0 setlinecap
0 0 m
0 4 l
gsave
0.000 setgray
fill
grestore
stroke
grestore
} bind def
108 54 o
grestore
gsave
/o {
gsave
newpath
translate
0.5 setlinewidth
1 setlinejoin
0 setlinecap
0 0 m
0 -4 l
gsave
0.000 setgray
fill
grestore
stroke
grestore
} bind def
108 388.8 o
grestore
/DejaVuSans findfont
10.000 scalefont
setfont
gsave
91.296875 42.437500 translate
0.000000 rotate
0.000000 0.140625 m /zero glyphshow
6.362305 0.140625 m /period glyphshow
9.541016 0.140625 m /zero glyphshow
15.903320 0.140625 m /zero glyphshow
22.265625 0.140625 m /zero glyphshow
28.627930 0.140625 m /one glyphshow
grestore
[1 3] 0 setdash
gsave
669.6 334.8 108 54 clipbox
274.518 54 m
274.518 388.8 l
stroke
grestore
[] 0 setdash
gsave
/o {
gsave
newpath
translate
0.5 setlinewidth
1 setlinejoin
0 setlinecap
0 0 m
0 4 l
gsave
0.000 setgray
fill
grestore
stroke
grestore
} bind def
274.518 54 o
grestore
gsave
/o {
gsave
newpath
translate
0.5 setlinewidth
1 setlinejoin
0 setlinecap
0 0 m
0 -4 l
gsave
0.000 setgray
fill
grestore
stroke
grestore
} bind def
274.518 388.8 o
grestore
gsave
260.994463 42.437500 translate
0.000000 rotate
0.000000 0.140625 m /zero glyphshow
6.362305 0.140625 m /period glyphshow
9.541016 0.140625 m /zero glyphshow
15.903320 0.140625 m /zero glyphshow
22.265625 0.140625 m /one glyphshow
grestore
[1 3] 0 setdash
gsave
669.6 334.8 108 54 clipbox
441.036 54 m
441.036 388.8 l
stroke
grestore
[] 0 setdash
gsave
/o {
gsave
newpath
translate
0.5 setlinewidth
1 setlinejoin
0 setlinecap
0 0 m
0 4 l
gsave
0.000 setgray
fill
grestore
stroke
grestore
} bind def
441.036 54 o
grestore
gsave
/o {
gsave
newpath
translate
0.5 setlinewidth
1 setlinejoin
0 setlinecap
0 0 m
0 -4 l
gsave
0.000 setgray
fill
grestore
stroke
grestore
} bind def
441.036 388.8 o
grestore
gsave
430.692051 42.437500 translate
0.000000 rotate
0.000000 0.140625 m /zero glyphshow
6.362305 0.140625 m /period glyphshow
9.541016 0.140625 m /zero glyphshow
15.903320 0.140625 m /one glyphshow
grestore
[1 3] 0 setdash
gsave
669.6 334.8 108 54 clipbox
607.554 54 m
607.554 388.8 l
stroke
grestore
[] 0 setdash
gsave
/o {
gsave
newpath
translate
0.5 setlinewidth
1 setlinejoin
0 setlinecap
0 0 m
0 4 l
gsave
0.000 setgray
fill
grestore
stroke
grestore
} bind def
607.554 54 o
grestore
gsave
/o {
gsave
newpath
translate
0.5 setlinewidth
1 setlinejoin
0 setlinecap
0 0 m
0 -4 l
gsave
0.000 setgray
fill
grestore
stroke
grestore
} bind def
607.554 388.8 o
grestore
gsave
600.389639 42.437500 translate
0.000000 rotate
0.000000 0.140625 m /zero glyphshow
6.362305 0.140625 m /period glyphshow
9.541016 0.140625 m /one glyphshow
grestore
[1 3] 0 setdash
gsave
669.6 334.8 108 54 clipbox
774.072 54 m
774.072 388.8 l
stroke
grestore
[] 0 setdash
gsave
/o {
gsave
newpath
translate
0.5 setlinewidth
1 setlinejoin
0 setlinecap
0 0 m
0 4 l
gsave
0.000 setgray
fill
grestore
stroke
grestore
} bind def
774.072 54 o
grestore
gsave
/o {
gsave
newpath
translate
0.5 setlinewidth
1 setlinejoin
0 setlinecap
0 0 m
0 -4 l
gsave
0.000 setgray
fill
grestore
stroke
grestore
} bind def
774.072 388.8 o
grestore
gsave
771.899727 42.703125 translate
0.000000 rotate
0.000000 0.000000 m /one glyphshow
grestore
[1 3] 0 setdash
gsave
669.6 334.8 108 54 clipbox
158.127 54 m
158.127 388.8 l
stroke
grestore
[] 0 setdash
gsave
/o {
gsave
newpath
translate
0.5 setlinewidth
1 setlinejoin
0 setlinecap
0 0 m
0 2 l
gsave
0.000 setgray
fill
grestore
stroke
grestore
} bind def
158.127 54 o
grestore
gsave
/o {
gsave
newpath
translate
0.5 setlinewidth
1 setlinejoin
0 setlinecap
0 0 m
0 -2 l
gsave
0.000 setgray
fill
grestore
stroke
grestore
} bind def
158.127 388.8 o
grestore
[1 3] 0 setdash
gsave
669.6 334.8 108 54 clipbox
187.449 54 m
187.449 388.8 l
stroke
grestore
[] 0 setdash
gsave
/o {
gsave
newpath
translate
0.5 setlinewidth
1 setlinejoin
0 setlinecap
0 0 m
0 2 l
gsave
0.000 setgray
fill
grestore
stroke
grestore
} bind def
187.449 54 o
grestore
gsave
/o {
gsave
newpath
translate
0.5 setlinewidth
1 setlinejoin
0 setlinecap
0 0 m
0 -2 l
gsave
0.000 setgray
fill
grestore
stroke
grestore
} bind def
187.449 388.8 o
grestore
[1 3] 0 setdash
gsave
669.6 334.8 108 54 clipbox
208.254 54 m
208.254 388.8 l
stroke
grestore
[] 0 setdash
gsave
/o {
gsave
newpath
translate
0.5 setlinewidth
1 setlinejoin
0 setlinecap
0 0 m
0 2 l
gsave
0.000 setgray
fill
grestore
stroke
grestore
} bind def
208.254 54 o
grestore
gsave
/o {
gsave
newpath
translate
0.5 setlinewidth
1 setlinejoin
0 setlinecap
0 0 m
0 -2 l
gsave
0.000 setgray
fill
grestore
stroke
grestore
} bind def
208.254 388.8 o
grestore
[1 3] 0 setdash
gsave
669.6 334.8 108 54 clipbox
224.391 54 m
224.391 388.8 l
stroke
grestore
[] 0 setdash
gsave
/o {
gsave
newpath
translate
0.5 setlinewidth
1 setlinejoin
0 setlinecap
0 0 m
0 2 l
gsave
0.000 setgray
fill
grestore
stroke
grestore
} bind def
224.391 54 o
grestore
gsave
/o {
gsave
newpath
translate
0.5 setlinewidth
1 setlinejoin
0 setlinecap
0 0 m
0 -2 l
gsave
0.000 setgray
fill
grestore
stroke
grestore
} bind def
224.391 388.8 o
grestore
[1 3] 0 setdash
gsave
669.6 334.8 108 54 clipbox
237.576 54 m
237.576 388.8 l
stroke
grestore
[] 0 setdash
gsave
/o {
gsave
newpath
translate
0.5 setlinewidth
1 setlinejoin
0 setlinecap
0 0 m
0 2 l
gsave
0.000 setgray
fill
grestore
stroke
grestore
} bind def
237.576 54 o
grestore
gsave
/o {
gsave
newpath
translate
0.5 setlinewidth
1 setlinejoin
0 setlinecap
0 0 m
0 -2 l
gsave
0.000 setgray
fill
grestore
stroke
grestore
} bind def
237.576 388.8 o
grestore
[1 3] 0 setdash
gsave
669.6 334.8 108 54 clipbox
248.724 54 m
248.724 388.8 l
stroke
grestore
[] 0 setdash
gsave
/o {
gsave
newpath
translate
0.5 setlinewidth
1 setlinejoin
0 setlinecap
0 0 m
0 2 l
gsave
0.000 setgray
fill
grestore
stroke
grestore
} bind def
248.724 54 o
grestore
gsave
/o {
gsave
newpath
translate
0.5 setlinewidth
1 setlinejoin
0 setlinecap
0 0 m
0 -2 l
gsave
0.000 setgray
fill
grestore
stroke
grestore
} bind def
248.724 388.8 o
grestore
[1 3] 0 setdash
gsave
669.6 334.8 108 54 clipbox
258.381 54 m
258.381 388.8 l
stroke
grestore
[] 0 setdash
gsave
/o {
gsave
newpath
translate
0.5 setlinewidth
1 setlinejoin
0 setlinecap
0 0 m
0 2 l
gsave
0.000 setgray
fill
grestore
stroke
grestore
} bind def
258.381 54 o
grestore
gsave
/o {
gsave
newpath
translate
0.5 setlinewidth
1 setlinejoin
0 setlinecap
0 0 m
0 -2 l
gsave
0.000 setgray
fill
grestore
stroke
grestore
} bind def
258.381 388.8 o
grestore
[1 3] 0 setdash
gsave
669.6 334.8 108 54 clipbox
266.898 54 m
266.898 388.8 l
stroke
grestore
[] 0 setdash
gsave
/o {
gsave
newpath
translate
0.5 setlinewidth
1 setlinejoin
0 setlinecap
0 0 m
0 2 l
gsave
0.000 setgray
fill
grestore
stroke
grestore
} bind def
266.898 54 o
grestore
gsave
/o {
gsave
newpath
translate
0.5 setlinewidth
1 setlinejoin
0 setlinecap
0 0 m
0 -2 l
gsave
0.000 setgray
fill
grestore
stroke
grestore
} bind def
266.898 388.8 o
grestore
[1 3] 0 setdash
gsave
669.6 334.8 108 54 clipbox
324.645 54 m
324.645 388.8 l
stroke
grestore
[] 0 setdash
gsave
/o {
gsave
newpath
translate
0.5 setlinewidth
1 setlinejoin
0 setlinecap
0 0 m
0 2 l
gsave
0.000 setgray
fill
grestore
stroke
grestore
} bind def
324.645 54 o
grestore
gsave
/o {
gsave
newpath
translate
0.5 setlinewidth
1 setlinejoin
0 setlinecap
0 0 m
0 -2 l
gsave
0.000 setgray
fill
grestore
stroke
grestore
} bind def
324.645 388.8 o
grestore
[1 3] 0 setdash
gsave
669.6 334.8 108 54 clipbox
353.967 54 m
353.967 388.8 l
stroke
grestore
[] 0 setdash
gsave
/o {
gsave
newpath
translate
0.5 setlinewidth
1 setlinejoin
0 setlinecap
0 0 m
0 2 l
gsave
0.000 setgray
fill
grestore
stroke
grestore
} bind def
353.967 54 o
grestore
gsave
/o {
gsave
newpath
translate
0.5 setlinewidth
1 setlinejoin
0 setlinecap
0 0 m
0 -2 l
gsave
0.000 setgray
fill
grestore
stroke
grestore
} bind def
353.967 388.8 o
grestore
[1 3] 0 setdash
gsave
669.6 334.8 108 54 clipbox
374.772 54 m
374.772 388.8 l
stroke
grestore
[] 0 setdash
gsave
/o {
gsave
newpath
translate
0.5 setlinewidth
1 setlinejoin
0 setlinecap
0 0 m
0 2 l
gsave
0.000 setgray
fill
grestore
stroke
grestore
} bind def
374.772 54 o
grestore
gsave
/o {
gsave
newpath
translate
0.5 setlinewidth
1 setlinejoin
0 setlinecap
0 0 m
0 -2 l
gsave
0.000 setgray
fill
grestore
stroke
grestore
} bind def
374.772 388.8 o
grestore
[1 3] 0 setdash
gsave
669.6 334.8 108 54 clipbox
390.909 54 m
390.909 388.8 l
stroke
grestore
[] 0 setdash
gsave
/o {
gsave
newpath
translate
0.5 setlinewidth
1 setlinejoin
0 setlinecap
0 0 m
0 2 l
gsave
0.000 setgray
fill
grestore
stroke
grestore
} bind def
390.909 54 o
grestore
gsave
/o {
gsave
newpath
translate
0.5 setlinewidth
1 setlinejoin
0 setlinecap
0 0 m
0 -2 l
gsave
0.000 setgray
fill
grestore
stroke
grestore
} bind def
390.909 388.8 o
grestore
[1 3] 0 setdash
gsave
669.6 334.8 108 54 clipbox
404.094 54 m
404.094 388.8 l
stroke
grestore
[] 0 setdash
gsave
/o {
gsave
newpath
translate
0.5 setlinewidth
1 setlinejoin
0 setlinecap
0 0 m
0 2 l
gsave
0.000 setgray
fill
grestore
stroke
grestore
} bind def
404.094 54 o
grestore
gsave
/o {
gsave
newpath
translate
0.5 setlinewidth
1 setlinejoin
0 setlinecap
0 0 m
0 -2 l
gsave
0.000 setgray
fill
grestore
stroke
grestore
} bind def
404.094 388.8 o
grestore
[1 3] 0 setdash
gsave
669.6 334.8 108 54 clipbox
415.242 54 m
415.242 388.8 l
stroke
grestore
[] 0 setdash
gsave
/o {
gsave
newpath
translate
0.5 setlinewidth
1 setlinejoin
0 setlinecap
0 0 m
0 2 l
gsave
0.000 setgray
fill
grestore
stroke
grestore
} bind def
415.242 54 o
grestore
gsave
/o {
gsave
newpath
translate
0.5 setlinewidth
1 setlinejoin
0 setlinecap
0 0 m
0 -2 l
gsave
0.000 setgray
fill
grestore
stroke
grestore
} bind def
415.242 388.8 o
grestore
[1 3] 0 setdash
gsave
669.6 334.8 108 54 clipbox
424.899 54 m
424.899 388.8 l
stroke
grestore
[] 0 setdash
gsave
/o {
gsave
newpath
translate
0.5 setlinewidth
1 setlinejoin
0 setlinecap
0 0 m
0 2 l
gsave
0.000 setgray
fill
grestore
stroke
grestore
} bind def
424.899 54 o
grestore
gsave
/o {
gsave
newpath
translate
0.5 setlinewidth
1 setlinejoin
0 setlinecap
0 0 m
0 -2 l
gsave
0.000 setgray
fill
grestore
stroke
grestore
} bind def
424.899 388.8 o
grestore
[1 3] 0 setdash
gsave
669.6 334.8 108 54 clipbox
433.416 54 m
433.416 388.8 l
stroke
grestore
[] 0 setdash
gsave
/o {
gsave
newpath
translate
0.5 setlinewidth
1 setlinejoin
0 setlinecap
0 0 m
0 2 l
gsave
0.000 setgray
fill
grestore
stroke
grestore
} bind def
433.416 54 o
grestore
gsave
/o {
gsave
newpath
translate
0.5 setlinewidth
1 setlinejoin
0 setlinecap
0 0 m
0 -2 l
gsave
0.000 setgray
fill
grestore
stroke
grestore
} bind def
433.416 388.8 o
grestore
[1 3] 0 setdash
gsave
669.6 334.8 108 54 clipbox
491.163 54 m
491.163 388.8 l
stroke
grestore
[] 0 setdash
gsave
/o {
gsave
newpath
translate
0.5 setlinewidth
1 setlinejoin
0 setlinecap
0 0 m
0 2 l
gsave
0.000 setgray
fill
grestore
stroke
grestore
} bind def
491.163 54 o
grestore
gsave
/o {
gsave
newpath
translate
0.5 setlinewidth
1 setlinejoin
0 setlinecap
0 0 m
0 -2 l
gsave
0.000 setgray
fill
grestore
stroke
grestore
} bind def
491.163 388.8 o
grestore
[1 3] 0 setdash
gsave
669.6 334.8 108 54 clipbox
520.485 54 m
520.485 388.8 l
stroke
grestore
[] 0 setdash
gsave
/o {
gsave
newpath
translate
0.5 setlinewidth
1 setlinejoin
0 setlinecap
0 0 m
0 2 l
gsave
0.000 setgray
fill
grestore
stroke
grestore
} bind def
520.485 54 o
grestore
gsave
/o {
gsave
newpath
translate
0.5 setlinewidth
1 setlinejoin
0 setlinecap
0 0 m
0 -2 l
gsave
0.000 setgray
fill
grestore
stroke
grestore
} bind def
520.485 388.8 o
grestore
[1 3] 0 setdash
gsave
669.6 334.8 108 54 clipbox
541.29 54 m
541.29 388.8 l
stroke
grestore
[] 0 setdash
gsave
/o {
gsave
newpath
translate
0.5 setlinewidth
1 setlinejoin
0 setlinecap
0 0 m
0 2 l
gsave
0.000 setgray
fill
grestore
stroke
grestore
} bind def
541.29 54 o
grestore
gsave
/o {
gsave
newpath
translate
0.5 setlinewidth
1 setlinejoin
0 setlinecap
0 0 m
0 -2 l
gsave
0.000 setgray
fill
grestore
stroke
grestore
} bind def
541.29 388.8 o
grestore
[1 3] 0 setdash
gsave
669.6 334.8 108 54 clipbox
557.427 54 m
557.427 388.8 l
stroke
grestore
[] 0 setdash
gsave
/o {
gsave
newpath
translate
0.5 setlinewidth
1 setlinejoin
0 setlinecap
0 0 m
0 2 l
gsave
0.000 setgray
fill
grestore
stroke
grestore
} bind def
557.427 54 o
grestore
gsave
/o {
gsave
newpath
translate
0.5 setlinewidth
1 setlinejoin
0 setlinecap
0 0 m
0 -2 l
gsave
0.000 setgray
fill
grestore
stroke
grestore
} bind def
557.427 388.8 o
grestore
[1 3] 0 setdash
gsave
669.6 334.8 108 54 clipbox
570.612 54 m
570.612 388.8 l
stroke
grestore
[] 0 setdash
gsave
/o {
gsave
newpath
translate
0.5 setlinewidth
1 setlinejoin
0 setlinecap
0 0 m
0 2 l
gsave
0.000 setgray
fill
grestore
stroke
grestore
} bind def
570.612 54 o
grestore
gsave
/o {
gsave
newpath
translate
0.5 setlinewidth
1 setlinejoin
0 setlinecap
0 0 m
0 -2 l
gsave
0.000 setgray
fill
grestore
stroke
grestore
} bind def
570.612 388.8 o
grestore
[1 3] 0 setdash
gsave
669.6 334.8 108 54 clipbox
581.76 54 m
581.76 388.8 l
stroke
grestore
[] 0 setdash
gsave
/o {
gsave
newpath
translate
0.5 setlinewidth
1 setlinejoin
0 setlinecap
0 0 m
0 2 l
gsave
0.000 setgray
fill
grestore
stroke
grestore
} bind def
581.76 54 o
grestore
gsave
/o {
gsave
newpath
translate
0.5 setlinewidth
1 setlinejoin
0 setlinecap
0 0 m
0 -2 l
gsave
0.000 setgray
fill
grestore
stroke
grestore
} bind def
581.76 388.8 o
grestore
[1 3] 0 setdash
gsave
669.6 334.8 108 54 clipbox
591.416 54 m
591.416 388.8 l
stroke
grestore
[] 0 setdash
gsave
/o {
gsave
newpath
translate
0.5 setlinewidth
1 setlinejoin
0 setlinecap
0 0 m
0 2 l
gsave
0.000 setgray
fill
grestore
stroke
grestore
} bind def
591.416 54 o
grestore
gsave
/o {
gsave
newpath
translate
0.5 setlinewidth
1 setlinejoin
0 setlinecap
0 0 m
0 -2 l
gsave
0.000 setgray
fill
grestore
stroke
grestore
} bind def
591.416 388.8 o
grestore
[1 3] 0 setdash
gsave
669.6 334.8 108 54 clipbox
599.934 54 m
599.934 388.8 l
stroke
grestore
[] 0 setdash
gsave
/o {
gsave
newpath
translate
0.5 setlinewidth
1 setlinejoin
0 setlinecap
0 0 m
0 2 l
gsave
0.000 setgray
fill
grestore
stroke
grestore
} bind def
599.934 54 o
grestore
gsave
/o {
gsave
newpath
translate
0.5 setlinewidth
1 setlinejoin
0 setlinecap
0 0 m
0 -2 l
gsave
0.000 setgray
fill
grestore
stroke
grestore
} bind def
599.934 388.8 o
grestore
[1 3] 0 setdash
gsave
669.6 334.8 108 54 clipbox
657.681 54 m
657.681 388.8 l
stroke
grestore
[] 0 setdash
gsave
/o {
gsave
newpath
translate
0.5 setlinewidth
1 setlinejoin
0 setlinecap
0 0 m
0 2 l
gsave
0.000 setgray
fill
grestore
stroke
grestore
} bind def
657.681 54 o
grestore
gsave
/o {
gsave
newpath
translate
0.5 setlinewidth
1 setlinejoin
0 setlinecap
0 0 m
0 -2 l
gsave
0.000 setgray
fill
grestore
stroke
grestore
} bind def
657.681 388.8 o
grestore
[1 3] 0 setdash
gsave
669.6 334.8 108 54 clipbox
687.003 54 m
687.003 388.8 l
stroke
grestore
[] 0 setdash
gsave
/o {
gsave
newpath
translate
0.5 setlinewidth
1 setlinejoin
0 setlinecap
0 0 m
0 2 l
gsave
0.000 setgray
fill
grestore
stroke
grestore
} bind def
687.003 54 o
grestore
gsave
/o {
gsave
newpath
translate
0.5 setlinewidth
1 setlinejoin
0 setlinecap
0 0 m
0 -2 l
gsave
0.000 setgray
fill
grestore
stroke
grestore
} bind def
687.003 388.8 o
grestore
[1 3] 0 setdash
gsave
669.6 334.8 108 54 clipbox
707.807 54 m
707.807 388.8 l
stroke
grestore
[] 0 setdash
gsave
/o {
gsave
newpath
translate
0.5 setlinewidth
1 setlinejoin
0 setlinecap
0 0 m
0 2 l
gsave
0.000 setgray
fill
grestore
stroke
grestore
} bind def
707.807 54 o
grestore
gsave
/o {
gsave
newpath
translate
0.5 setlinewidth
1 setlinejoin
0 setlinecap
0 0 m
0 -2 l
gsave
0.000 setgray
fill
grestore
stroke
grestore
} bind def
707.807 388.8 o
grestore
[1 3] 0 setdash
gsave
669.6 334.8 108 54 clipbox
723.945 54 m
723.945 388.8 l
stroke
grestore
[] 0 setdash
gsave
/o {
gsave
newpath
translate
0.5 setlinewidth
1 setlinejoin
0 setlinecap
0 0 m
0 2 l
gsave
0.000 setgray
fill
grestore
stroke
grestore
} bind def
723.945 54 o
grestore
gsave
/o {
gsave
newpath
translate
0.5 setlinewidth
1 setlinejoin
0 setlinecap
0 0 m
0 -2 l
gsave
0.000 setgray
fill
grestore
stroke
grestore
} bind def
723.945 388.8 o
grestore
[1 3] 0 setdash
gsave
669.6 334.8 108 54 clipbox
737.13 54 m
737.13 388.8 l
stroke
grestore
[] 0 setdash
gsave
/o {
gsave
newpath
translate
0.5 setlinewidth
1 setlinejoin
0 setlinecap
0 0 m
0 2 l
gsave
0.000 setgray
fill
grestore
stroke
grestore
} bind def
737.13 54 o
grestore
gsave
/o {
gsave
newpath
translate
0.5 setlinewidth
1 setlinejoin
0 setlinecap
0 0 m
0 -2 l
gsave
0.000 setgray
fill
grestore
stroke
grestore
} bind def
737.13 388.8 o
grestore
[1 3] 0 setdash
gsave
669.6 334.8 108 54 clipbox
748.278 54 m
748.278 388.8 l
stroke
grestore
[] 0 setdash
gsave
/o {
gsave
newpath
translate
0.5 setlinewidth
1 setlinejoin
0 setlinecap
0 0 m
0 2 l
gsave
0.000 setgray
fill
grestore
stroke
grestore
} bind def
748.278 54 o
grestore
gsave
/o {
gsave
newpath
translate
0.5 setlinewidth
1 setlinejoin
0 setlinecap
0 0 m
0 -2 l
gsave
0.000 setgray
fill
grestore
stroke
grestore
} bind def
748.278 388.8 o
grestore
[1 3] 0 setdash
gsave
669.6 334.8 108 54 clipbox
757.934 54 m
757.934 388.8 l
stroke
grestore
[] 0 setdash
gsave
/o {
gsave
newpath
translate
0.5 setlinewidth
1 setlinejoin
0 setlinecap
0 0 m
0 2 l
gsave
0.000 setgray
fill
grestore
stroke
grestore
} bind def
757.934 54 o
grestore
gsave
/o {
gsave
newpath
translate
0.5 setlinewidth
1 setlinejoin
0 setlinecap
0 0 m
0 -2 l
gsave
0.000 setgray
fill
grestore
stroke
grestore
} bind def
757.934 388.8 o
grestore
[1 3] 0 setdash
gsave
669.6 334.8 108 54 clipbox
766.452 54 m
766.452 388.8 l
stroke
grestore
[] 0 setdash
gsave
/o {
gsave
newpath
translate
0.5 setlinewidth
1 setlinejoin
0 setlinecap
0 0 m
0 2 l
gsave
0.000 setgray
fill
grestore
stroke
grestore
} bind def
766.452 54 o
grestore
gsave
/o {
gsave
newpath
translate
0.5 setlinewidth
1 setlinejoin
0 setlinecap
0 0 m
0 -2 l
gsave
0.000 setgray
fill
grestore
stroke
grestore
} bind def
766.452 388.8 o
grestore
gsave
439.300000 28.437500 translate
0.000000 rotate
/Cmmi10 findfont
12.0 scalefont
setfont
0.000000 3.703125 moveto
/p glyphshow


grestore
[1 3] 0 setdash
gsave
669.6 334.8 108 54 clipbox
108 54 m
777.6 54 l
stroke
grestore
[] 0 setdash
gsave
/o {
gsave
newpath
translate
0.5 setlinewidth
1 setlinejoin
0 setlinecap
0 0 m
4 0 l
gsave
0.000 setgray
fill
grestore
stroke
grestore
} bind def
108 54 o
grestore
gsave
/o {
gsave
newpath
translate
0.5 setlinewidth
1 setlinejoin
0 setlinecap
0 0 m
-4 0 l
gsave
0.000 setgray
fill
grestore
stroke
grestore
} bind def
777.6 54 o
grestore
gsave
89.406250 50.218750 translate
0.000000 rotate
0.000000 0.140625 m /zero glyphshow
6.362305 0.140625 m /period glyphshow
9.541016 0.140625 m /zero glyphshow
grestore
[1 3] 0 setdash
gsave
669.6 334.8 108 54 clipbox
108 119.647 m
777.6 119.647 l
stroke
grestore
[] 0 setdash
gsave
/o {
gsave
newpath
translate
0.5 setlinewidth
1 setlinejoin
0 setlinecap
0 0 m
4 0 l
gsave
0.000 setgray
fill
grestore
stroke
grestore
} bind def
108 119.647 o
grestore
gsave
/o {
gsave
newpath
translate
0.5 setlinewidth
1 setlinejoin
0 setlinecap
0 0 m
-4 0 l
gsave
0.000 setgray
fill
grestore
stroke
grestore
} bind def
777.6 119.647 o
grestore
gsave
89.750000 115.865809 translate
0.000000 rotate
0.000000 0.140625 m /zero glyphshow
6.362305 0.140625 m /period glyphshow
9.541016 0.140625 m /two glyphshow
grestore
[1 3] 0 setdash
gsave
669.6 334.8 108 54 clipbox
108 185.294 m
777.6 185.294 l
stroke
grestore
[] 0 setdash
gsave
/o {
gsave
newpath
translate
0.5 setlinewidth
1 setlinejoin
0 setlinecap
0 0 m
4 0 l
gsave
0.000 setgray
fill
grestore
stroke
grestore
} bind def
108 185.294 o
grestore
gsave
/o {
gsave
newpath
translate
0.5 setlinewidth
1 setlinejoin
0 setlinecap
0 0 m
-4 0 l
gsave
0.000 setgray
fill
grestore
stroke
grestore
} bind def
777.6 185.294 o
grestore
gsave
89.312500 181.512868 translate
0.000000 rotate
0.000000 0.140625 m /zero glyphshow
6.362305 0.140625 m /period glyphshow
9.541016 0.140625 m /four glyphshow
grestore
[1 3] 0 setdash
gsave
669.6 334.8 108 54 clipbox
108 250.941 m
777.6 250.941 l
stroke
grestore
[] 0 setdash
gsave
/o {
gsave
newpath
translate
0.5 setlinewidth
1 setlinejoin
0 setlinecap
0 0 m
4 0 l
gsave
0.000 setgray
fill
grestore
stroke
grestore
} bind def
108 250.941 o
grestore
gsave
/o {
gsave
newpath
translate
0.5 setlinewidth
1 setlinejoin
0 setlinecap
0 0 m
-4 0 l
gsave
0.000 setgray
fill
grestore
stroke
grestore
} bind def
777.6 250.941 o
grestore
gsave
89.375000 247.159926 translate
0.000000 rotate
0.000000 0.140625 m /zero glyphshow
6.362305 0.140625 m /period glyphshow
9.541016 0.140625 m /six glyphshow
grestore
[1 3] 0 setdash
gsave
669.6 334.8 108 54 clipbox
108 316.588 m
777.6 316.588 l
stroke
grestore
[] 0 setdash
gsave
/o {
gsave
newpath
translate
0.5 setlinewidth
1 setlinejoin
0 setlinecap
0 0 m
4 0 l
gsave
0.000 setgray
fill
grestore
stroke
grestore
} bind def
108 316.588 o
grestore
gsave
/o {
gsave
newpath
translate
0.5 setlinewidth
1 setlinejoin
0 setlinecap
0 0 m
-4 0 l
gsave
0.000 setgray
fill
grestore
stroke
grestore
} bind def
777.6 316.588 o
grestore
gsave
89.421875 312.806985 translate
0.000000 rotate
0.000000 0.140625 m /zero glyphshow
6.362305 0.140625 m /period glyphshow
9.541016 0.140625 m /eight glyphshow
grestore
[1 3] 0 setdash
gsave
669.6 334.8 108 54 clipbox
108 382.235 m
777.6 382.235 l
stroke
grestore
[] 0 setdash
gsave
/o {
gsave
newpath
translate
0.5 setlinewidth
1 setlinejoin
0 setlinecap
0 0 m
4 0 l
gsave
0.000 setgray
fill
grestore
stroke
grestore
} bind def
108 382.235 o
grestore
gsave
/o {
gsave
newpath
translate
0.5 setlinewidth
1 setlinejoin
0 setlinecap
0 0 m
-4 0 l
gsave
0.000 setgray
fill
grestore
stroke
grestore
} bind def
777.6 382.235 o
grestore
gsave
89.843750 378.454044 translate
0.000000 rotate
0.000000 0.140625 m /one glyphshow
6.362305 0.140625 m /period glyphshow
9.541016 0.140625 m /zero glyphshow
grestore
/DejaVuSans findfont
12.000 scalefont
setfont
gsave
84.312500 172.657813 translate
90.000000 rotate
0.000000 0.171875 m /n glyphshow
7.605469 0.171875 m /o glyphshow
14.947266 0.171875 m /r glyphshow
19.630859 0.171875 m /m glyphshow
31.320312 0.171875 m /a glyphshow
38.673828 0.171875 m /l glyphshow
42.007812 0.171875 m /i glyphshow
45.341797 0.171875 m /z glyphshow
51.640625 0.171875 m /e glyphshow
59.023438 0.171875 m /d glyphshow
66.640625 0.171875 m /space glyphshow
70.455078 0.171875 m /r glyphshow
75.388672 0.171875 m /a glyphshow
82.742188 0.171875 m /t glyphshow
87.447266 0.171875 m /i glyphshow
90.781250 0.171875 m /o glyphshow
grestore
1.000 setlinewidth
2 setlinecap
0.737 setgray
gsave
108 388.8 m
777.6 388.8 l
stroke
grestore
gsave
777.6 54 m
777.6 388.8 l
stroke
grestore
gsave
108 54 m
777.6 54 l
stroke
grestore
gsave
108 54 m
108 388.8 l
stroke
grestore
0.000 setgray
gsave
353.967130 229.529412 translate
0.000000 rotate
/Cmmi10 findfont
18.0 scalefont
setfont
0.000000 5.500000 moveto
/S glyphshow

/Cmr10 findfont
18.0 scalefont
setfont
11.030273 5.500000 moveto
/parenleft glyphshow

/Cmmi10 findfont
18.0 scalefont
setfont
18.017578 5.500000 moveto
/p glyphshow

/Cmr10 findfont
18.0 scalefont
setfont
27.070312 5.500000 moveto
/parenright glyphshow

/Cmmi10 findfont
18.0 scalefont
setfont
34.057617 5.500000 moveto
/slash glyphshow

43.057617 5.500000 moveto
/m glyphshow

58.860352 5.500000 moveto
/a glyphshow

68.361328 5.500000 moveto
/x glyphshow

/Cmr10 findfont
18.0 scalefont
setfont
78.635742 5.500000 moveto
/parenleft glyphshow

/Cmmi10 findfont
18.0 scalefont
setfont
85.623047 5.500000 moveto
/S glyphshow

/Cmr10 findfont
18.0 scalefont
setfont
96.653320 5.500000 moveto
/parenright glyphshow


grestore

end
showpage
